[
  {
    "WaveLevel": "1",
    "PersonCount": "1_5",
    "TouchCount": "1_2_3",
    "Percent": "5000_4000_1000",
    "Score": "200"
  },
  {
    "WaveLevel": "2",
    "PersonCount": "6_10",
    "TouchCount": "1_2_3",
    "Percent": "4000_4000_2000",
    "Score": "200"
  },
  {
    "WaveLevel": "3",
    "PersonCount": "11_15",
    "TouchCount": "1_2_3",
    "Percent": "3000_4000_3000",
    "Score": "200"
  },
  {
    "WaveLevel": "4",
    "PersonCount": "16_20",
    "TouchCount": "1_2_3_4",
    "Percent": "5000_3000_1000_1000",
    "Score": "400"
  },
  {
    "WaveLevel": "5",
    "PersonCount": "21_25",
    "TouchCount": "1_2_3_4",
    "Percent": "4000_3000_2000_1000",
    "Score": "400"
  },
  {
    "WaveLevel": "6",
    "PersonCount": "26_30",
    "TouchCount": "1_2_3_4",
    "Percent": "3000_3000_3000_1000",
    "Score": "400"
  },
  {
    "WaveLevel": "7",
    "PersonCount": "31_35",
    "TouchCount": "1_2_3_4_5",
    "Percent": "1000_3000_3000_2000_1000",
    "Score": "600"
  },
  {
    "WaveLevel": "8",
    "PersonCount": "36_40",
    "TouchCount": "1_2_3_4_5",
    "Percent": "1000_2000_3000_3000_1000",
    "Score": "600"
  },
  {
    "WaveLevel": "9",
    "PersonCount": "41_45",
    "TouchCount": "1_2_3_4_5",
    "Percent": "1000_2000_2000_4000_1000",
    "Score": "600"
  },
  {
    "WaveLevel": "10",
    "PersonCount": "46_50",
    "TouchCount": "1_2_3_4_5_6",
    "Percent": "1000_2000_2000_3000_1000_1000",
    "Score": "800"
  },
  {
    "WaveLevel": "11",
    "PersonCount": "51_55",
    "TouchCount": "1_2_3_4_5_6",
    "Percent": "1000_2000_2000_2000_2000_1000",
    "Score": "800"
  },
  {
    "WaveLevel": "12",
    "PersonCount": "56_60",
    "TouchCount": "1_2_3_4_5_6",
    "Percent": "1000_1000_2000_2000_3000_1000",
    "Score": "800"
  },
  {
    "WaveLevel": "13",
    "PersonCount": "61_65",
    "TouchCount": "1_2_3_4_5_6_7",
    "Percent": "1000_1000_2000_2000_2000_1000_1000",
    "Score": "1000"
  },
  {
    "WaveLevel": "14",
    "PersonCount": "66_70",
    "TouchCount": "1_2_3_4_5_6_7",
    "Percent": "1000_1000_1000_2000_2000_2000_1000",
    "Score": "1000"
  },
  {
    "WaveLevel": "15",
    "PersonCount": "71_75",
    "TouchCount": "1_2_3_4_5_6_7",
    "Percent": "1000_1000_1000_1000_2000_3000_1000",
    "Score": "1000"
  },
  {
    "WaveLevel": "16",
    "PersonCount": "76_80",
    "TouchCount": "1_2_3_4_5_6_7_8",
    "Percent": "1000_1000_1000_1000_2000_2000_1000_1000",
    "Score": "1200"
  },
  {
    "WaveLevel": "17",
    "PersonCount": "81_85",
    "TouchCount": "1_2_3_4_5_6_7_8",
    "Percent": "1000_1000_1000_1000_1000_2000_2000_1000",
    "Score": "1200"
  },
  {
    "WaveLevel": "18",
    "PersonCount": "86_90",
    "TouchCount": "1_2_3_4_5_6_7_8",
    "Percent": "1000_1000_1000_1000_1000_1000_3000_1000",
    "Score": "1200"
  },
  {
    "WaveLevel": "19",
    "PersonCount": "91_95",
    "TouchCount": "2_3_4_5_6_7_8_9",
    "Percent": "1000_1000_1000_1000_2000_2000_1000_1000",
    "Score": "1400"
  },
  {
    "WaveLevel": "20",
    "PersonCount": "96_100",
    "TouchCount": "2_3_4_5_6_7_8_9",
    "Percent": "1000_1000_1000_1000_1000_2000_2000_1000",
    "Score": "1400"
  },
  {
    "WaveLevel": "21",
    "PersonCount": "101_105",
    "TouchCount": "2_3_4_5_6_7_8_9",
    "Percent": "1000_1000_1000_1000_1000_1000_3000_1000",
    "Score": "1400"
  },
  {
    "WaveLevel": "22",
    "PersonCount": "106_110",
    "TouchCount": "3_4_5_6_7_8_9_10",
    "Percent": "1000_1000_1000_1000_2000_2000_1000_1000",
    "Score": "1600"
  },
  {
    "WaveLevel": "23",
    "PersonCount": "111_115",
    "TouchCount": "3_4_5_6_7_8_9_10",
    "Percent": "1000_1000_1000_1000_1000_2000_2000_1000",
    "Score": "1600"
  },
  {
    "WaveLevel": "24",
    "PersonCount": "116_120",
    "TouchCount": "3_4_5_6_7_8_9_10",
    "Percent": "1000_1000_1000_1000_1000_1000_3000_1000",
    "Score": "1600"
  },
  {
    "WaveLevel": "25",
    "PersonCount": "121_125",
    "TouchCount": "4_5_6_7_8_9_10_11",
    "Percent": "1000_1000_1000_1000_2000_2000_1000_1000",
    "Score": "1800"
  },
  {
    "WaveLevel": "26",
    "PersonCount": "126_130",
    "TouchCount": "4_5_6_7_8_9_10_11",
    "Percent": "1000_1000_1000_1000_1000_2000_2000_1000",
    "Score": "1800"
  },
  {
    "WaveLevel": "27",
    "PersonCount": "131_135",
    "TouchCount": "4_5_6_7_8_9_10_11",
    "Percent": "1000_1000_1000_1000_1000_1000_3000_1000",
    "Score": "1800"
  },
  {
    "WaveLevel": "28",
    "PersonCount": "136_140",
    "TouchCount": "5_6_7_8_9_10_11_12",
    "Percent": "1000_1000_1000_1000_2000_2000_1000_1000",
    "Score": "2000"
  },
  {
    "WaveLevel": "29",
    "PersonCount": "141_145",
    "TouchCount": "5_6_7_8_9_10_11_12",
    "Percent": "1000_1000_1000_1000_1000_2000_2000_1000",
    "Score": "2000"
  },
  {
    "WaveLevel": "30",
    "PersonCount": "146_150",
    "TouchCount": "5_6_7_8_9_10_11_12",
    "Percent": "1000_1000_1000_1000_1000_1000_3000_1000",
    "Score": "2000"
  },
  {
    "WaveLevel": "31",
    "PersonCount": "151_155",
    "TouchCount": "6_7_8_9_10_11_12_13",
    "Percent": "1000_1000_1000_1000_1000_1000_1000_3000",
    "Score": "2500"
  }
]