%YAML 1.1
%TAG !u! tag:unity3d.com,2011:
--- !u!29 &1
OcclusionCullingSettings:
  m_ObjectHideFlags: 0
  serializedVersion: 2
  m_OcclusionBakeSettings:
    smallestOccluder: 5
    smallestHole: 0.25
    backfaceThreshold: 100
  m_SceneGUID: 00000000000000000000000000000000
  m_OcclusionCullingData: {fileID: 0}
--- !u!104 &2
RenderSettings:
  m_ObjectHideFlags: 0
  serializedVersion: 9
  m_Fog: 0
  m_FogColor: {r: 0.5, g: 0.5, b: 0.5, a: 1}
  m_FogMode: 3
  m_FogDensity: 0.01
  m_LinearFogStart: 0
  m_LinearFogEnd: 300
  m_AmbientSkyColor: {r: 0.2, g: 0.2, b: 0.2, a: 1}
  m_AmbientEquatorColor: {r: 0.2, g: 0.2, b: 0.2, a: 1}
  m_AmbientGroundColor: {r: 0.2, g: 0.2, b: 0.2, a: 1}
  m_AmbientIntensity: 1
  m_AmbientMode: 3
  m_SubtractiveShadowColor: {r: 0.42, g: 0.478, b: 0.627, a: 1}
  m_SkyboxMaterial: {fileID: 0}
  m_HaloStrength: 0.5
  m_FlareStrength: 1
  m_FlareFadeSpeed: 3
  m_HaloTexture: {fileID: 0}
  m_SpotCookie: {fileID: 10001, guid: 0000000000000000e000000000000000, type: 0}
  m_DefaultReflectionMode: 0
  m_DefaultReflectionResolution: 128
  m_ReflectionBounces: 1
  m_ReflectionIntensity: 1
  m_CustomReflection: {fileID: 0}
  m_Sun: {fileID: 0}
  m_IndirectSpecularColor: {r: 0, g: 0, b: 0, a: 1}
  m_UseRadianceAmbientProbe: 0
--- !u!157 &4
LightmapSettings:
  m_ObjectHideFlags: 0
  serializedVersion: 11
  m_GIWorkflowMode: 1
  m_GISettings:
    serializedVersion: 2
    m_BounceScale: 1
    m_IndirectOutputScale: 1
    m_AlbedoBoost: 1
    m_EnvironmentLightingMode: 0
    m_EnableBakedLightmaps: 1
    m_EnableRealtimeLightmaps: 0
  m_LightmapEditorSettings:
    serializedVersion: 12
    m_Resolution: 1
    m_BakeResolution: 50
    m_AtlasSize: 1024
    m_AO: 1
    m_AOMaxDistance: 1
    m_CompAOExponent: 1
    m_CompAOExponentDirect: 0
    m_ExtractAmbientOcclusion: 0
    m_Padding: 2
    m_LightmapParameters: {fileID: 0}
    m_LightmapsBakeMode: 1
    m_TextureCompression: 0
    m_FinalGather: 0
    m_FinalGatherFiltering: 1
    m_FinalGatherRayCount: 256
    m_ReflectionCompression: 2
    m_MixedBakeMode: 1
    m_BakeBackend: 0
    m_PVRSampling: 1
    m_PVRDirectSampleCount: 32
    m_PVRSampleCount: 500
    m_PVRBounces: 2
    m_PVREnvironmentSampleCount: 500
    m_PVREnvironmentReferencePointCount: 2048
    m_PVRFilteringMode: 0
    m_PVRDenoiserTypeDirect: 0
    m_PVRDenoiserTypeIndirect: 0
    m_PVRDenoiserTypeAO: 0
    m_PVRFilterTypeDirect: 0
    m_PVRFilterTypeIndirect: 0
    m_PVRFilterTypeAO: 0
    m_PVREnvironmentMIS: 0
    m_PVRCulling: 1
    m_PVRFilteringGaussRadiusDirect: 1
    m_PVRFilteringGaussRadiusIndirect: 5
    m_PVRFilteringGaussRadiusAO: 2
    m_PVRFilteringAtrousPositionSigmaDirect: 0.5
    m_PVRFilteringAtrousPositionSigmaIndirect: 2
    m_PVRFilteringAtrousPositionSigmaAO: 1
    m_ExportTrainingData: 0
    m_TrainingDataDestination: TrainingData
    m_LightProbeSampleCountMultiplier: 4
  m_LightingDataAsset: {fileID: 0}
  m_UseShadowmask: 0
--- !u!196 &5
NavMeshSettings:
  serializedVersion: 2
  m_ObjectHideFlags: 0
  m_BuildSettings:
    serializedVersion: 2
    agentTypeID: 0
    agentRadius: 0.5
    agentHeight: 2
    agentSlope: 45
    agentClimb: 0.4
    ledgeDropHeight: 0
    maxJumpAcrossDistance: 0
    minRegionArea: 2
    manualCellSize: 0
    cellSize: 0.16666666
    manualTileSize: 0
    tileSize: 256
    accuratePlacement: 0
    debug:
      m_Flags: 0
  m_NavMeshData: {fileID: 0}
--- !u!224 &427407879 stripped
RectTransform:
  m_CorrespondingSourceObject: {fileID: 22477742, guid: bc76393b2d531d343b42a544faab5f26,
    type: 3}
  m_PrefabInstance: {fileID: 1606272465}
  m_PrefabAsset: {fileID: 0}
--- !u!1 &564712051 stripped
GameObject:
  m_CorrespondingSourceObject: {fileID: 140690, guid: 700fa4739f929e24698fb8d976a1dfd9,
    type: 3}
  m_PrefabInstance: {fileID: 800190752}
  m_PrefabAsset: {fileID: 0}
--- !u!224 &564712052 stripped
RectTransform:
  m_CorrespondingSourceObject: {fileID: 22440690, guid: 700fa4739f929e24698fb8d976a1dfd9,
    type: 3}
  m_PrefabInstance: {fileID: 800190752}
  m_PrefabAsset: {fileID: 0}
--- !u!114 &564712053
MonoBehaviour:
  m_ObjectHideFlags: 0
  m_CorrespondingSourceObject: {fileID: 0}
  m_PrefabInstance: {fileID: 0}
  m_PrefabAsset: {fileID: 0}
  m_GameObject: {fileID: 564712051}
  m_Enabled: 1
  m_EditorHideFlags: 0
  m_Script: {fileID: 11500000, guid: 0de3efb92e7aff446860792a7ce36896, type: 3}
  m_Name: 
  m_EditorClassIdentifier: 
  viewport: {fileID: 1962481041}
  itemPrefab: {fileID: 427407879}
  sampleFirstNames:
  - Joel
  - Kate
  - Winston
  - Creg
  - Andy
  - Wilma
  - John
  - Gregor
  - George
  sampleLocations:
  - London
  - New York
  - Belarus
  - New Delhi
  - Chicago
  - Moscow
  - Hong Kong
  - Sydney
  - Vladivostok
  - Rome
  - Bucharest
  - Athens
  - Paris
  - Berlin
  - Dakar
  - Dubai
  - Ankara
  - Amsterdam
  - Copenhagen
  - North Dakota
  demoUI: {fileID: 1223792299}
--- !u!1001 &800190752
PrefabInstance:
  m_ObjectHideFlags: 0
  serializedVersion: 2
  m_Modification:
    m_TransformParent: {fileID: 984884817}
    m_Modifications:
    - target: {fileID: 11440686, guid: 700fa4739f929e24698fb8d976a1dfd9, type: 3}
      propertyPath: m_Enabled
      value: 1
      objectReference: {fileID: 0}
    - target: {fileID: 11440700, guid: 700fa4739f929e24698fb8d976a1dfd9, type: 3}
      propertyPath: m_Value
      value: 0
      objectReference: {fileID: 0}
    - target: {fileID: 22440686, guid: 700fa4739f929e24698fb8d976a1dfd9, type: 3}
      propertyPath: m_SizeDelta.y
      value: 0
      objectReference: {fileID: 0}
    - target: {fileID: 22440686, guid: 700fa4739f929e24698fb8d976a1dfd9, type: 3}
      propertyPath: m_AnchoredPosition.x
      value: 0
      objectReference: {fileID: 0}
    - target: {fileID: 22440686, guid: 700fa4739f929e24698fb8d976a1dfd9, type: 3}
      propertyPath: m_AnchoredPosition.y
      value: 0.00048828125
      objectReference: {fileID: 0}
    - target: {fileID: 22440686, guid: 700fa4739f929e24698fb8d976a1dfd9, type: 3}
      propertyPath: m_LocalPosition.x
      value: 0
      objectReference: {fileID: 0}
    - target: {fileID: 22440686, guid: 700fa4739f929e24698fb8d976a1dfd9, type: 3}
      propertyPath: m_LocalPosition.y
      value: 0
      objectReference: {fileID: 0}
    - target: {fileID: 22440690, guid: 700fa4739f929e24698fb8d976a1dfd9, type: 3}
      propertyPath: m_LocalPosition.x
      value: 0
      objectReference: {fileID: 0}
    - target: {fileID: 22440690, guid: 700fa4739f929e24698fb8d976a1dfd9, type: 3}
      propertyPath: m_LocalPosition.y
      value: 0
      objectReference: {fileID: 0}
    - target: {fileID: 22440690, guid: 700fa4739f929e24698fb8d976a1dfd9, type: 3}
      propertyPath: m_LocalPosition.z
      value: 0
      objectReference: {fileID: 0}
    - target: {fileID: 22440690, guid: 700fa4739f929e24698fb8d976a1dfd9, type: 3}
      propertyPath: m_LocalRotation.x
      value: 0
      objectReference: {fileID: 0}
    - target: {fileID: 22440690, guid: 700fa4739f929e24698fb8d976a1dfd9, type: 3}
      propertyPath: m_LocalRotation.y
      value: 0
      objectReference: {fileID: 0}
    - target: {fileID: 22440690, guid: 700fa4739f929e24698fb8d976a1dfd9, type: 3}
      propertyPath: m_LocalRotation.z
      value: 0
      objectReference: {fileID: 0}
    - target: {fileID: 22440690, guid: 700fa4739f929e24698fb8d976a1dfd9, type: 3}
      propertyPath: m_LocalRotation.w
      value: 1
      objectReference: {fileID: 0}
    - target: {fileID: 22440690, guid: 700fa4739f929e24698fb8d976a1dfd9, type: 3}
      propertyPath: m_RootOrder
      value: 1
      objectReference: {fileID: 0}
    - target: {fileID: 22440690, guid: 700fa4739f929e24698fb8d976a1dfd9, type: 3}
      propertyPath: m_AnchoredPosition.x
      value: -1
      objectReference: {fileID: 0}
    - target: {fileID: 22440690, guid: 700fa4739f929e24698fb8d976a1dfd9, type: 3}
      propertyPath: m_AnchoredPosition.y
      value: -0.5
      objectReference: {fileID: 0}
    - target: {fileID: 22440690, guid: 700fa4739f929e24698fb8d976a1dfd9, type: 3}
      propertyPath: m_SizeDelta.x
      value: 2
      objectReference: {fileID: 0}
    - target: {fileID: 22440690, guid: 700fa4739f929e24698fb8d976a1dfd9, type: 3}
      propertyPath: m_SizeDelta.y
      value: 0
      objectReference: {fileID: 0}
    - target: {fileID: 22440690, guid: 700fa4739f929e24698fb8d976a1dfd9, type: 3}
      propertyPath: m_AnchorMin.x
      value: 0.5486817
      objectReference: {fileID: 0}
    - target: {fileID: 22440690, guid: 700fa4739f929e24698fb8d976a1dfd9, type: 3}
      propertyPath: m_AnchorMin.y
      value: 0.051000003
      objectReference: {fileID: 0}
    - target: {fileID: 22440690, guid: 700fa4739f929e24698fb8d976a1dfd9, type: 3}
      propertyPath: m_AnchorMax.x
      value: 0.9487004
      objectReference: {fileID: 0}
    - target: {fileID: 22440690, guid: 700fa4739f929e24698fb8d976a1dfd9, type: 3}
      propertyPath: m_AnchorMax.y
      value: 0.96045446
      objectReference: {fileID: 0}
    - target: {fileID: 22440690, guid: 700fa4739f929e24698fb8d976a1dfd9, type: 3}
      propertyPath: m_Pivot.x
      value: 0.5
      objectReference: {fileID: 0}
    - target: {fileID: 22440690, guid: 700fa4739f929e24698fb8d976a1dfd9, type: 3}
      propertyPath: m_Pivot.y
      value: 0.5
      objectReference: {fileID: 0}
    - target: {fileID: 22440692, guid: 700fa4739f929e24698fb8d976a1dfd9, type: 3}
      propertyPath: m_AnchoredPosition.x
      value: 3.8118896
      objectReference: {fileID: 0}
    - target: {fileID: 22440692, guid: 700fa4739f929e24698fb8d976a1dfd9, type: 3}
      propertyPath: m_AnchoredPosition.y
      value: 0
      objectReference: {fileID: 0}
    - target: {fileID: 22440694, guid: 700fa4739f929e24698fb8d976a1dfd9, type: 3}
      propertyPath: m_SizeDelta.x
      value: 0
      objectReference: {fileID: 0}
    - target: {fileID: 22440694, guid: 700fa4739f929e24698fb8d976a1dfd9, type: 3}
      propertyPath: m_SizeDelta.y
      value: 0
      objectReference: {fileID: 0}
    - target: {fileID: 22440696, guid: 700fa4739f929e24698fb8d976a1dfd9, type: 3}
      propertyPath: m_AnchorMax.x
      value: 0
      objectReference: {fileID: 0}
    - target: {fileID: 22440696, guid: 700fa4739f929e24698fb8d976a1dfd9, type: 3}
      propertyPath: m_AnchorMax.y
      value: 0
      objectReference: {fileID: 0}
    - target: {fileID: 22440696, guid: 700fa4739f929e24698fb8d976a1dfd9, type: 3}
      propertyPath: m_AnchorMin.y
      value: 0
      objectReference: {fileID: 0}
    - target: {fileID: 22440696, guid: 700fa4739f929e24698fb8d976a1dfd9, type: 3}
      propertyPath: m_SizeDelta.x
      value: 0
      objectReference: {fileID: 0}
    - target: {fileID: 22440696, guid: 700fa4739f929e24698fb8d976a1dfd9, type: 3}
      propertyPath: m_SizeDelta.y
      value: 0
      objectReference: {fileID: 0}
    - target: {fileID: 22440696, guid: 700fa4739f929e24698fb8d976a1dfd9, type: 3}
      propertyPath: m_LocalPosition.x
      value: 0
      objectReference: {fileID: 0}
    m_RemovedComponents: []
  m_SourcePrefab: {fileID: 100100000, guid: 700fa4739f929e24698fb8d976a1dfd9, type: 3}
--- !u!1 &984884816
GameObject:
  m_ObjectHideFlags: 0
  m_CorrespondingSourceObject: {fileID: 0}
  m_PrefabInstance: {fileID: 0}
  m_PrefabAsset: {fileID: 0}
  serializedVersion: 6
  m_Component:
  - component: {fileID: 984884817}
  - component: {fileID: 984884820}
  - component: {fileID: 984884819}
  - component: {fileID: 984884818}
  m_Layer: 5
  m_Name: Canvas
  m_TagString: Untagged
  m_Icon: {fileID: 0}
  m_NavMeshLayer: 0
  m_StaticEditorFlags: 0
  m_IsActive: 1
--- !u!224 &984884817
RectTransform:
  m_ObjectHideFlags: 0
  m_CorrespondingSourceObject: {fileID: 0}
  m_PrefabInstance: {fileID: 0}
  m_PrefabAsset: {fileID: 0}
  m_GameObject: {fileID: 984884816}
  m_LocalRotation: {x: 0, y: 0, z: 0, w: 1}
  m_LocalPosition: {x: 0, y: 0, z: 0}
  m_LocalScale: {x: 0, y: 0, z: 0}
  m_Children:
  - {fileID: 1914697042}
  - {fileID: 564712052}
  - {fileID: 427407879}
  - {fileID: 1573485502}
  - {fileID: 1211121993}
  m_Father: {fileID: 0}
  m_RootOrder: 1
  m_LocalEulerAnglesHint: {x: 0, y: 0, z: 0}
  m_AnchorMin: {x: 0, y: 0}
  m_AnchorMax: {x: 0, y: 0}
  m_AnchoredPosition: {x: 0, y: 0}
  m_SizeDelta: {x: 0, y: 0}
  m_Pivot: {x: 0, y: 0}
--- !u!114 &984884818
MonoBehaviour:
  m_ObjectHideFlags: 0
  m_CorrespondingSourceObject: {fileID: 0}
  m_PrefabInstance: {fileID: 0}
  m_PrefabAsset: {fileID: 0}
  m_GameObject: {fileID: 984884816}
  m_Enabled: 1
  m_EditorHideFlags: 0
  m_Script: {fileID: 11500000, guid: dc42784cf147c0c48a680349fa168899, type: 3}
  m_Name: 
  m_EditorClassIdentifier: 
  m_IgnoreReversedGraphics: 1
  m_BlockingObjects: 0
  m_BlockingMask:
    serializedVersion: 2
    m_Bits: 4294967295
--- !u!114 &984884819
MonoBehaviour:
  m_ObjectHideFlags: 0
  m_CorrespondingSourceObject: {fileID: 0}
  m_PrefabInstance: {fileID: 0}
  m_PrefabAsset: {fileID: 0}
  m_GameObject: {fileID: 984884816}
  m_Enabled: 1
  m_EditorHideFlags: 0
  m_Script: {fileID: 11500000, guid: 0cd44c1031e13a943bb63640046fad76, type: 3}
  m_Name: 
  m_EditorClassIdentifier: 
  m_UiScaleMode: 1
  m_ReferencePixelsPerUnit: 100
  m_ScaleFactor: 1
  m_ReferenceResolution: {x: 800, y: 600}
  m_ScreenMatchMode: 0
  m_MatchWidthOrHeight: 1
  m_PhysicalUnit: 3
  m_FallbackScreenDPI: 96
  m_DefaultSpriteDPI: 96
  m_DynamicPixelsPerUnit: 1
--- !u!223 &984884820
Canvas:
  m_ObjectHideFlags: 0
  m_CorrespondingSourceObject: {fileID: 0}
  m_PrefabInstance: {fileID: 0}
  m_PrefabAsset: {fileID: 0}
  m_GameObject: {fileID: 984884816}
  m_Enabled: 1
  serializedVersion: 3
  m_RenderMode: 0
  m_Camera: {fileID: 0}
  m_PlaneDistance: 100
  m_PixelPerfect: 0
  m_ReceivesEvents: 1
  m_OverrideSorting: 0
  m_OverridePixelPerfect: 0
  m_SortingBucketNormalizedSize: 0
  m_AdditionalShaderChannelsFlag: 25
  m_SortingLayerID: 0
  m_SortingOrder: 0
  m_TargetDisplay: 0
--- !u!1 &1211121992
GameObject:
  m_ObjectHideFlags: 0
  m_CorrespondingSourceObject: {fileID: 177746, guid: bc76393b2d531d343b42a544faab5f26,
    type: 3}
  m_PrefabInstance: {fileID: 0}
  m_PrefabAsset: {fileID: 0}
  serializedVersion: 6
  m_Component:
  - component: {fileID: 1211121993}
  - component: {fileID: 1211121995}
  - component: {fileID: 1211121994}
  m_Layer: 0
  m_Name: NoteText
  m_TagString: Untagged
  m_Icon: {fileID: 0}
  m_NavMeshLayer: 0
  m_StaticEditorFlags: 0
  m_IsActive: 1
--- !u!224 &1211121993
RectTransform:
  m_ObjectHideFlags: 0
  m_CorrespondingSourceObject: {fileID: 22477746, guid: bc76393b2d531d343b42a544faab5f26,
    type: 3}
  m_PrefabInstance: {fileID: 0}
  m_PrefabAsset: {fileID: 0}
  m_GameObject: {fileID: 1211121992}
  m_LocalRotation: {x: 0, y: 0, z: 0, w: 1}
  m_LocalPosition: {x: 0, y: 0, z: 0}
  m_LocalScale: {x: 1, y: 1, z: 1}
  m_Children: []
  m_Father: {fileID: 984884817}
  m_RootOrder: 4
  m_LocalEulerAnglesHint: {x: 0, y: 0, z: 0}
  m_AnchorMin: {x: 0.26200002, y: 0}
  m_AnchorMax: {x: 0.53800005, y: 0}
  m_AnchoredPosition: {x: -2, y: 20}
  m_SizeDelta: {x: -1.1000061, y: 40}
  m_Pivot: {x: 0.5, y: 0.5}
--- !u!114 &1211121994
MonoBehaviour:
  m_ObjectHideFlags: 0
  m_CorrespondingSourceObject: {fileID: 11477748, guid: bc76393b2d531d343b42a544faab5f26,
    type: 3}
  m_PrefabInstance: {fileID: 0}
  m_PrefabAsset: {fileID: 0}
  m_GameObject: {fileID: 1211121992}
  m_Enabled: 1
  m_EditorHideFlags: 0
  m_Script: {fileID: 11500000, guid: 5f7201a12d95ffc409449d95f23cf332, type: 3}
  m_Name: 
  m_EditorClassIdentifier: 
  m_Material: {fileID: 0}
  m_Color: {r: 0.8088235, g: 0.8088235, b: 0.8088235, a: 1}
  m_RaycastTarget: 1
  m_OnCullStateChanged:
    m_PersistentCalls:
      m_Calls: []
  m_FontData:
    m_Font: {fileID: 12800000, guid: 66d6b6d461ec44d4faba674e1cdb2aca, type: 3}
    m_FontSize: 14
    m_FontStyle: 0
    m_BestFit: 0
    m_MinSize: 10
    m_MaxSize: 26
    m_Alignment: 3
    m_AlignByGeometry: 0
    m_RichText: 0
    m_HorizontalOverflow: 1
    m_VerticalOverflow: 1
    m_LineSpacing: 1
  m_Text: '*Click an item to expand/collapse it'
--- !u!222 &1211121995
CanvasRenderer:
  m_ObjectHideFlags: 0
  m_CorrespondingSourceObject: {fileID: 22277740, guid: bc76393b2d531d343b42a544faab5f26,
    type: 3}
  m_PrefabInstance: {fileID: 0}
  m_PrefabAsset: {fileID: 0}
  m_GameObject: {fileID: 1211121992}
  m_CullTransparentMesh: 0
--- !u!114 &1223792299 stripped
MonoBehaviour:
  m_CorrespondingSourceObject: {fileID: 11409648, guid: 15ae066f32d36b741842ec1008cf67ec,
    type: 3}
  m_PrefabInstance: {fileID: 1925210966}
  m_PrefabAsset: {fileID: 0}
  m_GameObject: {fileID: 0}
  m_Enabled: 1
  m_EditorHideFlags: 0
  m_Script: {fileID: 11500000, guid: b7f7a20c3ee5b7f4abb2a60b7b63eca0, type: 3}
  m_Name: 
  m_EditorClassIdentifier: 
--- !u!224 &1573485502 stripped
RectTransform:
  m_CorrespondingSourceObject: {fileID: 22409688, guid: 15ae066f32d36b741842ec1008cf67ec,
    type: 3}
  m_PrefabInstance: {fileID: 1925210966}
  m_PrefabAsset: {fileID: 0}
--- !u!1001 &1606272465
PrefabInstance:
  m_ObjectHideFlags: 0
  serializedVersion: 2
  m_Modification:
    m_TransformParent: {fileID: 984884817}
    m_Modifications:
    - target: {fileID: 22444874, guid: bc76393b2d531d343b42a544faab5f26, type: 3}
      propertyPath: m_AnchorMin.y
      value: 0
      objectReference: {fileID: 0}
    - target: {fileID: 22444874, guid: bc76393b2d531d343b42a544faab5f26, type: 3}
      propertyPath: m_AnchorMax.y
      value: 0
      objectReference: {fileID: 0}
    - target: {fileID: 22444874, guid: bc76393b2d531d343b42a544faab5f26, type: 3}
      propertyPath: m_AnchoredPosition.x
      value: 0
      objectReference: {fileID: 0}
    - target: {fileID: 22444874, guid: bc76393b2d531d343b42a544faab5f26, type: 3}
      propertyPath: m_AnchoredPosition.y
      value: 0
      objectReference: {fileID: 0}
    - target: {fileID: 22444874, guid: bc76393b2d531d343b42a544faab5f26, type: 3}
      propertyPath: m_SizeDelta.x
      value: 0
      objectReference: {fileID: 0}
    - target: {fileID: 22444874, guid: bc76393b2d531d343b42a544faab5f26, type: 3}
      propertyPath: m_SizeDelta.y
      value: 0
      objectReference: {fileID: 0}
    - target: {fileID: 22444874, guid: bc76393b2d531d343b42a544faab5f26, type: 3}
      propertyPath: m_LocalPosition.x
      value: 0
      objectReference: {fileID: 0}
    - target: {fileID: 22444874, guid: bc76393b2d531d343b42a544faab5f26, type: 3}
      propertyPath: m_LocalPosition.y
      value: 0
      objectReference: {fileID: 0}
    - target: {fileID: 22444876, guid: bc76393b2d531d343b42a544faab5f26, type: 3}
      propertyPath: m_AnchorMin.y
      value: 0
      objectReference: {fileID: 0}
    - target: {fileID: 22444876, guid: bc76393b2d531d343b42a544faab5f26, type: 3}
      propertyPath: m_AnchorMax.y
      value: 0
      objectReference: {fileID: 0}
    - target: {fileID: 22444876, guid: bc76393b2d531d343b42a544faab5f26, type: 3}
      propertyPath: m_AnchoredPosition.x
      value: 0
      objectReference: {fileID: 0}
    - target: {fileID: 22444876, guid: bc76393b2d531d343b42a544faab5f26, type: 3}
      propertyPath: m_AnchoredPosition.y
      value: 0
      objectReference: {fileID: 0}
    - target: {fileID: 22444876, guid: bc76393b2d531d343b42a544faab5f26, type: 3}
      propertyPath: m_SizeDelta.x
      value: 0
      objectReference: {fileID: 0}
    - target: {fileID: 22444876, guid: bc76393b2d531d343b42a544faab5f26, type: 3}
      propertyPath: m_SizeDelta.y
      value: 0
      objectReference: {fileID: 0}
    - target: {fileID: 22444876, guid: bc76393b2d531d343b42a544faab5f26, type: 3}
      propertyPath: m_LocalPosition.x
      value: 0
      objectReference: {fileID: 0}
    - target: {fileID: 22444876, guid: bc76393b2d531d343b42a544faab5f26, type: 3}
      propertyPath: m_LocalPosition.y
      value: 0
      objectReference: {fileID: 0}
    - target: {fileID: 22444878, guid: bc76393b2d531d343b42a544faab5f26, type: 3}
      propertyPath: m_AnchorMin.y
      value: 0
      objectReference: {fileID: 0}
    - target: {fileID: 22444878, guid: bc76393b2d531d343b42a544faab5f26, type: 3}
      propertyPath: m_AnchorMax.y
      value: 0
      objectReference: {fileID: 0}
    - target: {fileID: 22444878, guid: bc76393b2d531d343b42a544faab5f26, type: 3}
      propertyPath: m_AnchoredPosition.x
      value: 0
      objectReference: {fileID: 0}
    - target: {fileID: 22444878, guid: bc76393b2d531d343b42a544faab5f26, type: 3}
      propertyPath: m_AnchoredPosition.y
      value: 0
      objectReference: {fileID: 0}
    - target: {fileID: 22444878, guid: bc76393b2d531d343b42a544faab5f26, type: 3}
      propertyPath: m_SizeDelta.x
      value: 0
      objectReference: {fileID: 0}
    - target: {fileID: 22444878, guid: bc76393b2d531d343b42a544faab5f26, type: 3}
      propertyPath: m_SizeDelta.y
      value: 0
      objectReference: {fileID: 0}
    - target: {fileID: 22444878, guid: bc76393b2d531d343b42a544faab5f26, type: 3}
      propertyPath: m_LocalPosition.x
      value: 0
      objectReference: {fileID: 0}
    - target: {fileID: 22444878, guid: bc76393b2d531d343b42a544faab5f26, type: 3}
      propertyPath: m_LocalPosition.y
      value: 0
      objectReference: {fileID: 0}
    - target: {fileID: 22444882, guid: bc76393b2d531d343b42a544faab5f26, type: 3}
      propertyPath: m_AnchorMin.y
      value: 0
      objectReference: {fileID: 0}
    - target: {fileID: 22444882, guid: bc76393b2d531d343b42a544faab5f26, type: 3}
      propertyPath: m_AnchorMax.y
      value: 0
      objectReference: {fileID: 0}
    - target: {fileID: 22444882, guid: bc76393b2d531d343b42a544faab5f26, type: 3}
      propertyPath: m_AnchoredPosition.x
      value: 0
      objectReference: {fileID: 0}
    - target: {fileID: 22444882, guid: bc76393b2d531d343b42a544faab5f26, type: 3}
      propertyPath: m_AnchoredPosition.y
      value: 0
      objectReference: {fileID: 0}
    - target: {fileID: 22444882, guid: bc76393b2d531d343b42a544faab5f26, type: 3}
      propertyPath: m_SizeDelta.x
      value: 0
      objectReference: {fileID: 0}
    - target: {fileID: 22444882, guid: bc76393b2d531d343b42a544faab5f26, type: 3}
      propertyPath: m_SizeDelta.y
      value: 0
      objectReference: {fileID: 0}
    - target: {fileID: 22444882, guid: bc76393b2d531d343b42a544faab5f26, type: 3}
      propertyPath: m_LocalPosition.x
      value: 0
      objectReference: {fileID: 0}
    - target: {fileID: 22444882, guid: bc76393b2d531d343b42a544faab5f26, type: 3}
      propertyPath: m_LocalPosition.y
      value: 0
      objectReference: {fileID: 0}
    - target: {fileID: 22444884, guid: bc76393b2d531d343b42a544faab5f26, type: 3}
      propertyPath: m_AnchorMin.y
      value: 0
      objectReference: {fileID: 0}
    - target: {fileID: 22444884, guid: bc76393b2d531d343b42a544faab5f26, type: 3}
      propertyPath: m_AnchorMax.y
      value: 0
      objectReference: {fileID: 0}
    - target: {fileID: 22444884, guid: bc76393b2d531d343b42a544faab5f26, type: 3}
      propertyPath: m_AnchoredPosition.x
      value: 0
      objectReference: {fileID: 0}
    - target: {fileID: 22444884, guid: bc76393b2d531d343b42a544faab5f26, type: 3}
      propertyPath: m_AnchoredPosition.y
      value: 0
      objectReference: {fileID: 0}
    - target: {fileID: 22444884, guid: bc76393b2d531d343b42a544faab5f26, type: 3}
      propertyPath: m_SizeDelta.x
      value: 0
      objectReference: {fileID: 0}
    - target: {fileID: 22444884, guid: bc76393b2d531d343b42a544faab5f26, type: 3}
      propertyPath: m_SizeDelta.y
      value: 0
      objectReference: {fileID: 0}
    - target: {fileID: 22444884, guid: bc76393b2d531d343b42a544faab5f26, type: 3}
      propertyPath: m_LocalPosition.x
      value: 0
      objectReference: {fileID: 0}
    - target: {fileID: 22444888, guid: bc76393b2d531d343b42a544faab5f26, type: 3}
      propertyPath: m_AnchorMin.y
      value: 0
      objectReference: {fileID: 0}
    - target: {fileID: 22444888, guid: bc76393b2d531d343b42a544faab5f26, type: 3}
      propertyPath: m_AnchorMax.y
      value: 0
      objectReference: {fileID: 0}
    - target: {fileID: 22444888, guid: bc76393b2d531d343b42a544faab5f26, type: 3}
      propertyPath: m_AnchoredPosition.x
      value: 0
      objectReference: {fileID: 0}
    - target: {fileID: 22444888, guid: bc76393b2d531d343b42a544faab5f26, type: 3}
      propertyPath: m_AnchoredPosition.y
      value: 0
      objectReference: {fileID: 0}
    - target: {fileID: 22444888, guid: bc76393b2d531d343b42a544faab5f26, type: 3}
      propertyPath: m_SizeDelta.x
      value: 0
      objectReference: {fileID: 0}
    - target: {fileID: 22444888, guid: bc76393b2d531d343b42a544faab5f26, type: 3}
      propertyPath: m_SizeDelta.y
      value: 0
      objectReference: {fileID: 0}
    - target: {fileID: 22444888, guid: bc76393b2d531d343b42a544faab5f26, type: 3}
      propertyPath: m_LocalPosition.x
      value: 0
      objectReference: {fileID: 0}
    - target: {fileID: 22444888, guid: bc76393b2d531d343b42a544faab5f26, type: 3}
      propertyPath: m_LocalPosition.y
      value: 0
      objectReference: {fileID: 0}
    - target: {fileID: 22444890, guid: bc76393b2d531d343b42a544faab5f26, type: 3}
      propertyPath: m_AnchorMin.y
      value: 0
      objectReference: {fileID: 0}
    - target: {fileID: 22444890, guid: bc76393b2d531d343b42a544faab5f26, type: 3}
      propertyPath: m_AnchorMax.y
      value: 0
      objectReference: {fileID: 0}
    - target: {fileID: 22444890, guid: bc76393b2d531d343b42a544faab5f26, type: 3}
      propertyPath: m_AnchoredPosition.x
      value: 0
      objectReference: {fileID: 0}
    - target: {fileID: 22444890, guid: bc76393b2d531d343b42a544faab5f26, type: 3}
      propertyPath: m_AnchoredPosition.y
      value: 0
      objectReference: {fileID: 0}
    - target: {fileID: 22444890, guid: bc76393b2d531d343b42a544faab5f26, type: 3}
      propertyPath: m_SizeDelta.x
      value: 0
      objectReference: {fileID: 0}
    - target: {fileID: 22444890, guid: bc76393b2d531d343b42a544faab5f26, type: 3}
      propertyPath: m_SizeDelta.y
      value: 0
      objectReference: {fileID: 0}
    - target: {fileID: 22444890, guid: bc76393b2d531d343b42a544faab5f26, type: 3}
      propertyPath: m_LocalPosition.x
      value: 0
      objectReference: {fileID: 0}
    - target: {fileID: 22444894, guid: bc76393b2d531d343b42a544faab5f26, type: 3}
      propertyPath: m_AnchorMin.y
      value: 0
      objectReference: {fileID: 0}
    - target: {fileID: 22444894, guid: bc76393b2d531d343b42a544faab5f26, type: 3}
      propertyPath: m_AnchorMax.y
      value: 0
      objectReference: {fileID: 0}
    - target: {fileID: 22444894, guid: bc76393b2d531d343b42a544faab5f26, type: 3}
      propertyPath: m_AnchoredPosition.x
      value: 0
      objectReference: {fileID: 0}
    - target: {fileID: 22444894, guid: bc76393b2d531d343b42a544faab5f26, type: 3}
      propertyPath: m_AnchoredPosition.y
      value: 0
      objectReference: {fileID: 0}
    - target: {fileID: 22444894, guid: bc76393b2d531d343b42a544faab5f26, type: 3}
      propertyPath: m_SizeDelta.x
      value: 0
      objectReference: {fileID: 0}
    - target: {fileID: 22444894, guid: bc76393b2d531d343b42a544faab5f26, type: 3}
      propertyPath: m_SizeDelta.y
      value: 0
      objectReference: {fileID: 0}
    - target: {fileID: 22444894, guid: bc76393b2d531d343b42a544faab5f26, type: 3}
      propertyPath: m_LocalPosition.x
      value: 0
      objectReference: {fileID: 0}
    - target: {fileID: 22444894, guid: bc76393b2d531d343b42a544faab5f26, type: 3}
      propertyPath: m_LocalPosition.y
      value: 0
      objectReference: {fileID: 0}
    - target: {fileID: 22444896, guid: bc76393b2d531d343b42a544faab5f26, type: 3}
      propertyPath: m_AnchorMin.y
      value: 0
      objectReference: {fileID: 0}
    - target: {fileID: 22444896, guid: bc76393b2d531d343b42a544faab5f26, type: 3}
      propertyPath: m_AnchorMax.y
      value: 0
      objectReference: {fileID: 0}
    - target: {fileID: 22444896, guid: bc76393b2d531d343b42a544faab5f26, type: 3}
      propertyPath: m_AnchoredPosition.x
      value: 0
      objectReference: {fileID: 0}
    - target: {fileID: 22444896, guid: bc76393b2d531d343b42a544faab5f26, type: 3}
      propertyPath: m_AnchoredPosition.y
      value: 0
      objectReference: {fileID: 0}
    - target: {fileID: 22444896, guid: bc76393b2d531d343b42a544faab5f26, type: 3}
      propertyPath: m_SizeDelta.x
      value: 0
      objectReference: {fileID: 0}
    - target: {fileID: 22444896, guid: bc76393b2d531d343b42a544faab5f26, type: 3}
      propertyPath: m_SizeDelta.y
      value: 0
      objectReference: {fileID: 0}
    - target: {fileID: 22444896, guid: bc76393b2d531d343b42a544faab5f26, type: 3}
      propertyPath: m_LocalPosition.x
      value: 0
      objectReference: {fileID: 0}
    - target: {fileID: 22477740, guid: bc76393b2d531d343b42a544faab5f26, type: 3}
      propertyPath: m_SizeDelta.x
      value: 0
      objectReference: {fileID: 0}
    - target: {fileID: 22477740, guid: bc76393b2d531d343b42a544faab5f26, type: 3}
      propertyPath: m_LocalPosition.y
      value: 0
      objectReference: {fileID: 0}
    - target: {fileID: 22477740, guid: bc76393b2d531d343b42a544faab5f26, type: 3}
      propertyPath: m_AnchoredPosition.x
      value: 1.8999939
      objectReference: {fileID: 0}
    - target: {fileID: 22477740, guid: bc76393b2d531d343b42a544faab5f26, type: 3}
      propertyPath: m_AnchoredPosition.y
      value: -29.300003
      objectReference: {fileID: 0}
    - target: {fileID: 22477742, guid: bc76393b2d531d343b42a544faab5f26, type: 3}
      propertyPath: m_LocalPosition.x
      value: 0
      objectReference: {fileID: 0}
    - target: {fileID: 22477742, guid: bc76393b2d531d343b42a544faab5f26, type: 3}
      propertyPath: m_LocalPosition.y
      value: 0
      objectReference: {fileID: 0}
    - target: {fileID: 22477742, guid: bc76393b2d531d343b42a544faab5f26, type: 3}
      propertyPath: m_LocalPosition.z
      value: 0
      objectReference: {fileID: 0}
    - target: {fileID: 22477742, guid: bc76393b2d531d343b42a544faab5f26, type: 3}
      propertyPath: m_LocalRotation.x
      value: 0
      objectReference: {fileID: 0}
    - target: {fileID: 22477742, guid: bc76393b2d531d343b42a544faab5f26, type: 3}
      propertyPath: m_LocalRotation.y
      value: 0
      objectReference: {fileID: 0}
    - target: {fileID: 22477742, guid: bc76393b2d531d343b42a544faab5f26, type: 3}
      propertyPath: m_LocalRotation.z
      value: 0
      objectReference: {fileID: 0}
    - target: {fileID: 22477742, guid: bc76393b2d531d343b42a544faab5f26, type: 3}
      propertyPath: m_LocalRotation.w
      value: 1
      objectReference: {fileID: 0}
    - target: {fileID: 22477742, guid: bc76393b2d531d343b42a544faab5f26, type: 3}
      propertyPath: m_RootOrder
      value: 2
      objectReference: {fileID: 0}
    - target: {fileID: 22477742, guid: bc76393b2d531d343b42a544faab5f26, type: 3}
      propertyPath: m_AnchoredPosition.x
      value: 209
      objectReference: {fileID: 0}
    - target: {fileID: 22477742, guid: bc76393b2d531d343b42a544faab5f26, type: 3}
      propertyPath: m_AnchoredPosition.y
      value: -4
      objectReference: {fileID: 0}
    - target: {fileID: 22477742, guid: bc76393b2d531d343b42a544faab5f26, type: 3}
      propertyPath: m_SizeDelta.x
      value: 408
      objectReference: {fileID: 0}
    - target: {fileID: 22477742, guid: bc76393b2d531d343b42a544faab5f26, type: 3}
      propertyPath: m_SizeDelta.y
      value: 90
      objectReference: {fileID: 0}
    - target: {fileID: 22477742, guid: bc76393b2d531d343b42a544faab5f26, type: 3}
      propertyPath: m_AnchorMin.x
      value: -0.3421274
      objectReference: {fileID: 0}
    - target: {fileID: 22477742, guid: bc76393b2d531d343b42a544faab5f26, type: 3}
      propertyPath: m_AnchorMin.y
      value: -0.10363636
      objectReference: {fileID: 0}
    - target: {fileID: 22477742, guid: bc76393b2d531d343b42a544faab5f26, type: 3}
      propertyPath: m_AnchorMax.x
      value: -0.3421274
      objectReference: {fileID: 0}
    - target: {fileID: 22477742, guid: bc76393b2d531d343b42a544faab5f26, type: 3}
      propertyPath: m_AnchorMax.y
      value: -0.10363636
      objectReference: {fileID: 0}
    - target: {fileID: 22477742, guid: bc76393b2d531d343b42a544faab5f26, type: 3}
      propertyPath: m_Pivot.x
      value: 0.5
      objectReference: {fileID: 0}
    - target: {fileID: 22477742, guid: bc76393b2d531d343b42a544faab5f26, type: 3}
      propertyPath: m_Pivot.y
      value: 1.0000001
      objectReference: {fileID: 0}
    - target: {fileID: 22477792, guid: bc76393b2d531d343b42a544faab5f26, type: 3}
      propertyPath: m_AnchoredPosition.x
      value: 0.3050232
      objectReference: {fileID: 0}
    - target: {fileID: 22477792, guid: bc76393b2d531d343b42a544faab5f26, type: 3}
      propertyPath: m_AnchoredPosition.y
      value: -5.950001
      objectReference: {fileID: 0}
    m_RemovedComponents: []
  m_SourcePrefab: {fileID: 100100000, guid: bc76393b2d531d343b42a544faab5f26, type: 3}
--- !u!1 &1643242278
GameObject:
  m_ObjectHideFlags: 0
  m_CorrespondingSourceObject: {fileID: 0}
  m_PrefabInstance: {fileID: 0}
  m_PrefabAsset: {fileID: 0}
  serializedVersion: 6
  m_Component:
  - component: {fileID: 1643242282}
  - component: {fileID: 1643242281}
  - component: {fileID: 1643242280}
  - component: {fileID: 1643242279}
  m_Layer: 0
  m_Name: EventSystem
  m_TagString: Untagged
  m_Icon: {fileID: 0}
  m_NavMeshLayer: 0
  m_StaticEditorFlags: 0
  m_IsActive: 1
--- !u!114 &1643242279
MonoBehaviour:
  m_ObjectHideFlags: 0
  m_CorrespondingSourceObject: {fileID: 0}
  m_PrefabInstance: {fileID: 0}
  m_PrefabAsset: {fileID: 0}
  m_GameObject: {fileID: 1643242278}
  m_Enabled: 1
  m_EditorHideFlags: 0
  m_Script: {fileID: 11500000, guid: 2d49b7c1bcd2e07499844da127be038d, type: 3}
  m_Name: 
  m_EditorClassIdentifier: 
  m_ForceModuleActive: 0
--- !u!114 &1643242280
MonoBehaviour:
  m_ObjectHideFlags: 0
  m_CorrespondingSourceObject: {fileID: 0}
  m_PrefabInstance: {fileID: 0}
  m_PrefabAsset: {fileID: 0}
  m_GameObject: {fileID: 1643242278}
  m_Enabled: 1
  m_EditorHideFlags: 0
  m_Script: {fileID: 11500000, guid: 4f231c4fb786f3946a6b90b886c48677, type: 3}
  m_Name: 
  m_EditorClassIdentifier: 
  m_HorizontalAxis: Horizontal
  m_VerticalAxis: Vertical
  m_SubmitButton: Submit
  m_CancelButton: Cancel
  m_InputActionsPerSecond: 10
  m_RepeatDelay: 0.5
  m_ForceModuleActive: 0
--- !u!114 &1643242281
MonoBehaviour:
  m_ObjectHideFlags: 0
  m_CorrespondingSourceObject: {fileID: 0}
  m_PrefabInstance: {fileID: 0}
  m_PrefabAsset: {fileID: 0}
  m_GameObject: {fileID: 1643242278}
  m_Enabled: 1
  m_EditorHideFlags: 0
  m_Script: {fileID: 11500000, guid: 76c392e42b5098c458856cdf6ecaaaa1, type: 3}
  m_Name: 
  m_EditorClassIdentifier: 
  m_FirstSelected: {fileID: 0}
  m_sendNavigationEvents: 1
  m_DragThreshold: 5
--- !u!4 &1643242282
Transform:
  m_ObjectHideFlags: 0
  m_CorrespondingSourceObject: {fileID: 0}
  m_PrefabInstance: {fileID: 0}
  m_PrefabAsset: {fileID: 0}
  m_GameObject: {fileID: 1643242278}
  m_LocalRotation: {x: 0, y: 0, z: 0, w: 1}
  m_LocalPosition: {x: 0, y: 0, z: 0}
  m_LocalScale: {x: 1, y: 1, z: 1}
  m_Children: []
  m_Father: {fileID: 0}
  m_RootOrder: 2
  m_LocalEulerAnglesHint: {x: 0, y: 0, z: 0}
--- !u!1001 &1768523741
PrefabInstance:
  m_ObjectHideFlags: 0
  serializedVersion: 2
  m_Modification:
    m_TransformParent: {fileID: 984884817}
    m_Modifications:
    - target: {fileID: 11446284, guid: 4a6378f6c42346c46976ae795b3ee1df, type: 3}
      propertyPath: m_Color.r
      value: 1
      objectReference: {fileID: 0}
    - target: {fileID: 11446284, guid: 4a6378f6c42346c46976ae795b3ee1df, type: 3}
      propertyPath: m_Color.g
      value: .682758689
      objectReference: {fileID: 0}
    - target: {fileID: 11446284, guid: 4a6378f6c42346c46976ae795b3ee1df, type: 3}
      propertyPath: m_Color.b
      value: 0
      objectReference: {fileID: 0}
    - target: {fileID: 11446284, guid: 4a6378f6c42346c46976ae795b3ee1df, type: 3}
      propertyPath: m_Color.a
      value: .172549024
      objectReference: {fileID: 0}
    - target: {fileID: 22446284, guid: 4a6378f6c42346c46976ae795b3ee1df, type: 3}
      propertyPath: m_LocalPosition.x
      value: 0
      objectReference: {fileID: 0}
    - target: {fileID: 22446284, guid: 4a6378f6c42346c46976ae795b3ee1df, type: 3}
      propertyPath: m_LocalPosition.y
      value: 0
      objectReference: {fileID: 0}
    - target: {fileID: 22446284, guid: 4a6378f6c42346c46976ae795b3ee1df, type: 3}
      propertyPath: m_LocalPosition.z
      value: 0
      objectReference: {fileID: 0}
    - target: {fileID: 22446284, guid: 4a6378f6c42346c46976ae795b3ee1df, type: 3}
      propertyPath: m_LocalRotation.x
      value: 0
      objectReference: {fileID: 0}
    - target: {fileID: 22446284, guid: 4a6378f6c42346c46976ae795b3ee1df, type: 3}
      propertyPath: m_LocalRotation.y
      value: 0
      objectReference: {fileID: 0}
    - target: {fileID: 22446284, guid: 4a6378f6c42346c46976ae795b3ee1df, type: 3}
      propertyPath: m_LocalRotation.z
      value: 1
      objectReference: {fileID: 0}
    - target: {fileID: 22446284, guid: 4a6378f6c42346c46976ae795b3ee1df, type: 3}
      propertyPath: m_LocalRotation.w
      value: -0.00000004371139
      objectReference: {fileID: 0}
    - target: {fileID: 22446284, guid: 4a6378f6c42346c46976ae795b3ee1df, type: 3}
      propertyPath: m_RootOrder
      value: 0
      objectReference: {fileID: 0}
    - target: {fileID: 22446284, guid: 4a6378f6c42346c46976ae795b3ee1df, type: 3}
      propertyPath: m_AnchoredPosition.x
      value: 0
      objectReference: {fileID: 0}
    - target: {fileID: 22446284, guid: 4a6378f6c42346c46976ae795b3ee1df, type: 3}
      propertyPath: m_AnchoredPosition.y
      value: 0
      objectReference: {fileID: 0}
    - target: {fileID: 22446284, guid: 4a6378f6c42346c46976ae795b3ee1df, type: 3}
      propertyPath: m_SizeDelta.x
      value: 0
      objectReference: {fileID: 0}
    - target: {fileID: 22446284, guid: 4a6378f6c42346c46976ae795b3ee1df, type: 3}
      propertyPath: m_SizeDelta.y
      value: 0
      objectReference: {fileID: 0}
    - target: {fileID: 22446284, guid: 4a6378f6c42346c46976ae795b3ee1df, type: 3}
      propertyPath: m_AnchorMin.x
      value: 0
      objectReference: {fileID: 0}
    - target: {fileID: 22446284, guid: 4a6378f6c42346c46976ae795b3ee1df, type: 3}
      propertyPath: m_AnchorMin.y
      value: 0
      objectReference: {fileID: 0}
    - target: {fileID: 22446284, guid: 4a6378f6c42346c46976ae795b3ee1df, type: 3}
      propertyPath: m_AnchorMax.x
      value: 1
      objectReference: {fileID: 0}
    - target: {fileID: 22446284, guid: 4a6378f6c42346c46976ae795b3ee1df, type: 3}
      propertyPath: m_AnchorMax.y
      value: 1
      objectReference: {fileID: 0}
    - target: {fileID: 22446284, guid: 4a6378f6c42346c46976ae795b3ee1df, type: 3}
      propertyPath: m_Pivot.x
      value: 0.5
      objectReference: {fileID: 0}
    - target: {fileID: 22446284, guid: 4a6378f6c42346c46976ae795b3ee1df, type: 3}
      propertyPath: m_Pivot.y
      value: 0.5
      objectReference: {fileID: 0}
    - target: {fileID: 22446284, guid: 4a6378f6c42346c46976ae795b3ee1df, type: 3}
      propertyPath: m_LocalScale.x
      value: 0.99999994
      objectReference: {fileID: 0}
    - target: {fileID: 22446284, guid: 4a6378f6c42346c46976ae795b3ee1df, type: 3}
      propertyPath: m_LocalScale.y
      value: 0.99999994
      objectReference: {fileID: 0}
    - target: {fileID: 22446284, guid: 4a6378f6c42346c46976ae795b3ee1df, type: 3}
      propertyPath: m_LocalScale.z
      value: 0.99999994
      objectReference: {fileID: 0}
    m_RemovedComponents: []
  m_SourcePrefab: {fileID: 100100000, guid: 4a6378f6c42346c46976ae795b3ee1df, type: 3}
--- !u!224 &1914697042 stripped
RectTransform:
  m_CorrespondingSourceObject: {fileID: 22446284, guid: 4a6378f6c42346c46976ae795b3ee1df,
    type: 3}
  m_PrefabInstance: {fileID: 1768523741}
  m_PrefabAsset: {fileID: 0}
--- !u!1001 &1925210966
PrefabInstance:
  m_ObjectHideFlags: 0
  serializedVersion: 2
  m_Modification:
    m_TransformParent: {fileID: 984884817}
    m_Modifications:
    - target: {fileID: 109704, guid: 15ae066f32d36b741842ec1008cf67ec, type: 3}
      propertyPath: m_IsActive
      value: 0
      objectReference: {fileID: 0}
    - target: {fileID: 11409598, guid: 15ae066f32d36b741842ec1008cf67ec, type: 3}
      propertyPath: m_Text
      value: 15
      objectReference: {fileID: 0}
    - target: {fileID: 11409604, guid: 15ae066f32d36b741842ec1008cf67ec, type: 3}
      propertyPath: sceneName
      value: ClassicGridView
      objectReference: {fileID: 0}
    - target: {fileID: 11409616, guid: 15ae066f32d36b741842ec1008cf67ec, type: 3}
      propertyPath: sceneName
      value: HorizontalClassicListView
      objectReference: {fileID: 0}
    - target: {fileID: 11409662, guid: 15ae066f32d36b741842ec1008cf67ec, type: 3}
      propertyPath: m_Text
      value: 6
      objectReference: {fileID: 0}
    - target: {fileID: 11409672, guid: 15ae066f32d36b741842ec1008cf67ec, type: 3}
      propertyPath: sceneName
      value: HorizontalClassicListView
      objectReference: {fileID: 0}
    - target: {fileID: 11409726, guid: 15ae066f32d36b741842ec1008cf67ec, type: 3}
      propertyPath: m_Text
      value: Vertical ListView
      objectReference: {fileID: 0}
    - target: {fileID: 22409672, guid: 15ae066f32d36b741842ec1008cf67ec, type: 3}
      propertyPath: m_AnchorMin.y
      value: 1
      objectReference: {fileID: 0}
    - target: {fileID: 22409672, guid: 15ae066f32d36b741842ec1008cf67ec, type: 3}
      propertyPath: m_AnchorMax.y
      value: 1
      objectReference: {fileID: 0}
    - target: {fileID: 22409672, guid: 15ae066f32d36b741842ec1008cf67ec, type: 3}
      propertyPath: m_AnchoredPosition.x
      value: 255.98166
      objectReference: {fileID: 0}
    - target: {fileID: 22409672, guid: 15ae066f32d36b741842ec1008cf67ec, type: 3}
      propertyPath: m_AnchoredPosition.y
      value: -28.43769
      objectReference: {fileID: 0}
    - target: {fileID: 22409672, guid: 15ae066f32d36b741842ec1008cf67ec, type: 3}
      propertyPath: m_SizeDelta.x
      value: 158.65443
      objectReference: {fileID: 0}
    - target: {fileID: 22409672, guid: 15ae066f32d36b741842ec1008cf67ec, type: 3}
      propertyPath: m_SizeDelta.y
      value: 40.87538
      objectReference: {fileID: 0}
    - target: {fileID: 22409672, guid: 15ae066f32d36b741842ec1008cf67ec, type: 3}
      propertyPath: m_LocalPosition.x
      value: 0
      objectReference: {fileID: 0}
    - target: {fileID: 22409674, guid: 15ae066f32d36b741842ec1008cf67ec, type: 3}
      propertyPath: m_AnchoredPosition.x
      value: 0
      objectReference: {fileID: 0}
    - target: {fileID: 22409674, guid: 15ae066f32d36b741842ec1008cf67ec, type: 3}
      propertyPath: m_AnchorMin.y
      value: 0
      objectReference: {fileID: 0}
    - target: {fileID: 22409674, guid: 15ae066f32d36b741842ec1008cf67ec, type: 3}
      propertyPath: m_AnchorMax.y
      value: 0
      objectReference: {fileID: 0}
    - target: {fileID: 22409674, guid: 15ae066f32d36b741842ec1008cf67ec, type: 3}
      propertyPath: m_AnchoredPosition.y
      value: 0
      objectReference: {fileID: 0}
    - target: {fileID: 22409674, guid: 15ae066f32d36b741842ec1008cf67ec, type: 3}
      propertyPath: m_SizeDelta.x
      value: 0
      objectReference: {fileID: 0}
    - target: {fileID: 22409674, guid: 15ae066f32d36b741842ec1008cf67ec, type: 3}
      propertyPath: m_SizeDelta.y
      value: 0
      objectReference: {fileID: 0}
    - target: {fileID: 22409674, guid: 15ae066f32d36b741842ec1008cf67ec, type: 3}
      propertyPath: m_LocalPosition.x
      value: 0
      objectReference: {fileID: 0}
    - target: {fileID: 22409674, guid: 15ae066f32d36b741842ec1008cf67ec, type: 3}
      propertyPath: m_LocalPosition.y
      value: 0
      objectReference: {fileID: 0}
    - target: {fileID: 22409676, guid: 15ae066f32d36b741842ec1008cf67ec, type: 3}
      propertyPath: m_AnchorMin.y
      value: 0
      objectReference: {fileID: 0}
    - target: {fileID: 22409676, guid: 15ae066f32d36b741842ec1008cf67ec, type: 3}
      propertyPath: m_AnchorMax.y
      value: 0
      objectReference: {fileID: 0}
    - target: {fileID: 22409676, guid: 15ae066f32d36b741842ec1008cf67ec, type: 3}
      propertyPath: m_AnchoredPosition.x
      value: 0
      objectReference: {fileID: 0}
    - target: {fileID: 22409676, guid: 15ae066f32d36b741842ec1008cf67ec, type: 3}
      propertyPath: m_AnchoredPosition.y
      value: 0
      objectReference: {fileID: 0}
    - target: {fileID: 22409676, guid: 15ae066f32d36b741842ec1008cf67ec, type: 3}
      propertyPath: m_SizeDelta.x
      value: 0
      objectReference: {fileID: 0}
    - target: {fileID: 22409676, guid: 15ae066f32d36b741842ec1008cf67ec, type: 3}
      propertyPath: m_SizeDelta.y
      value: 0
      objectReference: {fileID: 0}
    - target: {fileID: 22409676, guid: 15ae066f32d36b741842ec1008cf67ec, type: 3}
      propertyPath: m_LocalPosition.y
      value: 0
      objectReference: {fileID: 0}
    - target: {fileID: 22409678, guid: 15ae066f32d36b741842ec1008cf67ec, type: 3}
      propertyPath: m_AnchorMin.y
      value: 0
      objectReference: {fileID: 0}
    - target: {fileID: 22409678, guid: 15ae066f32d36b741842ec1008cf67ec, type: 3}
      propertyPath: m_AnchorMax.y
      value: 0
      objectReference: {fileID: 0}
    - target: {fileID: 22409678, guid: 15ae066f32d36b741842ec1008cf67ec, type: 3}
      propertyPath: m_AnchoredPosition.x
      value: 0
      objectReference: {fileID: 0}
    - target: {fileID: 22409678, guid: 15ae066f32d36b741842ec1008cf67ec, type: 3}
      propertyPath: m_AnchoredPosition.y
      value: 0
      objectReference: {fileID: 0}
    - target: {fileID: 22409678, guid: 15ae066f32d36b741842ec1008cf67ec, type: 3}
      propertyPath: m_SizeDelta.x
      value: 0
      objectReference: {fileID: 0}
    - target: {fileID: 22409678, guid: 15ae066f32d36b741842ec1008cf67ec, type: 3}
      propertyPath: m_SizeDelta.y
      value: 0
      objectReference: {fileID: 0}
    - target: {fileID: 22409678, guid: 15ae066f32d36b741842ec1008cf67ec, type: 3}
      propertyPath: m_LocalPosition.x
      value: 0
      objectReference: {fileID: 0}
    - target: {fileID: 22409678, guid: 15ae066f32d36b741842ec1008cf67ec, type: 3}
      propertyPath: m_LocalPosition.y
      value: 0
      objectReference: {fileID: 0}
    - target: {fileID: 22409680, guid: 15ae066f32d36b741842ec1008cf67ec, type: 3}
      propertyPath: m_AnchorMin.y
      value: 0
      objectReference: {fileID: 0}
    - target: {fileID: 22409680, guid: 15ae066f32d36b741842ec1008cf67ec, type: 3}
      propertyPath: m_AnchorMax.y
      value: 0
      objectReference: {fileID: 0}
    - target: {fileID: 22409680, guid: 15ae066f32d36b741842ec1008cf67ec, type: 3}
      propertyPath: m_AnchoredPosition.x
      value: 0
      objectReference: {fileID: 0}
    - target: {fileID: 22409680, guid: 15ae066f32d36b741842ec1008cf67ec, type: 3}
      propertyPath: m_AnchoredPosition.y
      value: 0
      objectReference: {fileID: 0}
    - target: {fileID: 22409680, guid: 15ae066f32d36b741842ec1008cf67ec, type: 3}
      propertyPath: m_SizeDelta.x
      value: 0
      objectReference: {fileID: 0}
    - target: {fileID: 22409680, guid: 15ae066f32d36b741842ec1008cf67ec, type: 3}
      propertyPath: m_SizeDelta.y
      value: 0
      objectReference: {fileID: 0}
    - target: {fileID: 22409680, guid: 15ae066f32d36b741842ec1008cf67ec, type: 3}
      propertyPath: m_LocalPosition.x
      value: 0
      objectReference: {fileID: 0}
    - target: {fileID: 22409680, guid: 15ae066f32d36b741842ec1008cf67ec, type: 3}
      propertyPath: m_LocalPosition.y
      value: 0
      objectReference: {fileID: 0}
    - target: {fileID: 22409682, guid: 15ae066f32d36b741842ec1008cf67ec, type: 3}
      propertyPath: m_AnchorMin.y
      value: 1
      objectReference: {fileID: 0}
    - target: {fileID: 22409682, guid: 15ae066f32d36b741842ec1008cf67ec, type: 3}
      propertyPath: m_AnchorMax.y
      value: 1
      objectReference: {fileID: 0}
    - target: {fileID: 22409682, guid: 15ae066f32d36b741842ec1008cf67ec, type: 3}
      propertyPath: m_AnchoredPosition.x
      value: 171.65443
      objectReference: {fileID: 0}
    - target: {fileID: 22409682, guid: 15ae066f32d36b741842ec1008cf67ec, type: 3}
      propertyPath: m_AnchoredPosition.y
      value: -43.43769
      objectReference: {fileID: 0}
    - target: {fileID: 22409682, guid: 15ae066f32d36b741842ec1008cf67ec, type: 3}
      propertyPath: m_SizeDelta.x
      value: 343.30887
      objectReference: {fileID: 0}
    - target: {fileID: 22409682, guid: 15ae066f32d36b741842ec1008cf67ec, type: 3}
      propertyPath: m_SizeDelta.y
      value: 56.87538
      objectReference: {fileID: 0}
    - target: {fileID: 22409682, guid: 15ae066f32d36b741842ec1008cf67ec, type: 3}
      propertyPath: m_LocalPosition.x
      value: 0
      objectReference: {fileID: 0}
    - target: {fileID: 22409682, guid: 15ae066f32d36b741842ec1008cf67ec, type: 3}
      propertyPath: m_LocalPosition.y
      value: 0
      objectReference: {fileID: 0}
    - target: {fileID: 22409684, guid: 15ae066f32d36b741842ec1008cf67ec, type: 3}
      propertyPath: m_AnchorMin.y
      value: 1
      objectReference: {fileID: 0}
    - target: {fileID: 22409684, guid: 15ae066f32d36b741842ec1008cf67ec, type: 3}
      propertyPath: m_AnchorMax.y
      value: 1
      objectReference: {fileID: 0}
    - target: {fileID: 22409684, guid: 15ae066f32d36b741842ec1008cf67ec, type: 3}
      propertyPath: m_AnchoredPosition.x
      value: 171.65443
      objectReference: {fileID: 0}
    - target: {fileID: 22409684, guid: 15ae066f32d36b741842ec1008cf67ec, type: 3}
      propertyPath: m_SizeDelta.x
      value: 327.30887
      objectReference: {fileID: 0}
    - target: {fileID: 22409684, guid: 15ae066f32d36b741842ec1008cf67ec, type: 3}
      propertyPath: m_SizeDelta.y
      value: 56.87538
      objectReference: {fileID: 0}
    - target: {fileID: 22409684, guid: 15ae066f32d36b741842ec1008cf67ec, type: 3}
      propertyPath: m_LocalPosition.x
      value: 0
      objectReference: {fileID: 0}
    - target: {fileID: 22409684, guid: 15ae066f32d36b741842ec1008cf67ec, type: 3}
      propertyPath: m_LocalPosition.y
      value: 0
      objectReference: {fileID: 0}
    - target: {fileID: 22409688, guid: 15ae066f32d36b741842ec1008cf67ec, type: 3}
      propertyPath: m_LocalPosition.x
      value: 0
      objectReference: {fileID: 0}
    - target: {fileID: 22409688, guid: 15ae066f32d36b741842ec1008cf67ec, type: 3}
      propertyPath: m_LocalPosition.y
      value: 0
      objectReference: {fileID: 0}
    - target: {fileID: 22409688, guid: 15ae066f32d36b741842ec1008cf67ec, type: 3}
      propertyPath: m_LocalPosition.z
      value: 0
      objectReference: {fileID: 0}
    - target: {fileID: 22409688, guid: 15ae066f32d36b741842ec1008cf67ec, type: 3}
      propertyPath: m_LocalRotation.x
      value: 0
      objectReference: {fileID: 0}
    - target: {fileID: 22409688, guid: 15ae066f32d36b741842ec1008cf67ec, type: 3}
      propertyPath: m_LocalRotation.y
      value: 0
      objectReference: {fileID: 0}
    - target: {fileID: 22409688, guid: 15ae066f32d36b741842ec1008cf67ec, type: 3}
      propertyPath: m_LocalRotation.z
      value: 0
      objectReference: {fileID: 0}
    - target: {fileID: 22409688, guid: 15ae066f32d36b741842ec1008cf67ec, type: 3}
      propertyPath: m_LocalRotation.w
      value: 1
      objectReference: {fileID: 0}
    - target: {fileID: 22409688, guid: 15ae066f32d36b741842ec1008cf67ec, type: 3}
      propertyPath: m_RootOrder
      value: 3
      objectReference: {fileID: 0}
    - target: {fileID: 22409688, guid: 15ae066f32d36b741842ec1008cf67ec, type: 3}
      propertyPath: m_AnchoredPosition.x
      value: 177.5
      objectReference: {fileID: 0}
    - target: {fileID: 22409688, guid: 15ae066f32d36b741842ec1008cf67ec, type: 3}
      propertyPath: m_AnchoredPosition.y
      value: 0
      objectReference: {fileID: 0}
    - target: {fileID: 22409688, guid: 15ae066f32d36b741842ec1008cf67ec, type: 3}
      propertyPath: m_SizeDelta.x
      value: 355
      objectReference: {fileID: 0}
    - target: {fileID: 22409688, guid: 15ae066f32d36b741842ec1008cf67ec, type: 3}
      propertyPath: m_SizeDelta.y
      value: 0
      objectReference: {fileID: 0}
    - target: {fileID: 22409688, guid: 15ae066f32d36b741842ec1008cf67ec, type: 3}
      propertyPath: m_AnchorMin.x
      value: 0
      objectReference: {fileID: 0}
    - target: {fileID: 22409688, guid: 15ae066f32d36b741842ec1008cf67ec, type: 3}
      propertyPath: m_AnchorMin.y
      value: 0
      objectReference: {fileID: 0}
    - target: {fileID: 22409688, guid: 15ae066f32d36b741842ec1008cf67ec, type: 3}
      propertyPath: m_AnchorMax.x
      value: 0
      objectReference: {fileID: 0}
    - target: {fileID: 22409688, guid: 15ae066f32d36b741842ec1008cf67ec, type: 3}
      propertyPath: m_AnchorMax.y
      value: 1
      objectReference: {fileID: 0}
    - target: {fileID: 22409688, guid: 15ae066f32d36b741842ec1008cf67ec, type: 3}
      propertyPath: m_Pivot.x
      value: 0.5
      objectReference: {fileID: 0}
    - target: {fileID: 22409688, guid: 15ae066f32d36b741842ec1008cf67ec, type: 3}
      propertyPath: m_Pivot.y
      value: 0.5
      objectReference: {fileID: 0}
    - target: {fileID: 22409692, guid: 15ae066f32d36b741842ec1008cf67ec, type: 3}
      propertyPath: m_AnchorMin.y
      value: 1
      objectReference: {fileID: 0}
    - target: {fileID: 22409692, guid: 15ae066f32d36b741842ec1008cf67ec, type: 3}
      propertyPath: m_AnchorMax.y
      value: 1
      objectReference: {fileID: 0}
    - target: {fileID: 22409692, guid: 15ae066f32d36b741842ec1008cf67ec, type: 3}
      propertyPath: m_AnchoredPosition.x
      value: 79.32722
      objectReference: {fileID: 0}
    - target: {fileID: 22409692, guid: 15ae066f32d36b741842ec1008cf67ec, type: 3}
      propertyPath: m_AnchoredPosition.y
      value: -28.43769
      objectReference: {fileID: 0}
    - target: {fileID: 22409692, guid: 15ae066f32d36b741842ec1008cf67ec, type: 3}
      propertyPath: m_SizeDelta.x
      value: 158.65443
      objectReference: {fileID: 0}
    - target: {fileID: 22409692, guid: 15ae066f32d36b741842ec1008cf67ec, type: 3}
      propertyPath: m_SizeDelta.y
      value: 40.87538
      objectReference: {fileID: 0}
    - target: {fileID: 22409692, guid: 15ae066f32d36b741842ec1008cf67ec, type: 3}
      propertyPath: m_LocalPosition.x
      value: 0
      objectReference: {fileID: 0}
    - target: {fileID: 22409692, guid: 15ae066f32d36b741842ec1008cf67ec, type: 3}
      propertyPath: m_LocalPosition.y
      value: 0
      objectReference: {fileID: 0}
    - target: {fileID: 22409694, guid: 15ae066f32d36b741842ec1008cf67ec, type: 3}
      propertyPath: m_SizeDelta.x
      value: 0
      objectReference: {fileID: 0}
    - target: {fileID: 22409694, guid: 15ae066f32d36b741842ec1008cf67ec, type: 3}
      propertyPath: m_SizeDelta.y
      value: 0
      objectReference: {fileID: 0}
    - target: {fileID: 22409694, guid: 15ae066f32d36b741842ec1008cf67ec, type: 3}
      propertyPath: m_AnchorMin.y
      value: 0
      objectReference: {fileID: 0}
    - target: {fileID: 22409694, guid: 15ae066f32d36b741842ec1008cf67ec, type: 3}
      propertyPath: m_AnchorMax.y
      value: 0
      objectReference: {fileID: 0}
    - target: {fileID: 22409694, guid: 15ae066f32d36b741842ec1008cf67ec, type: 3}
      propertyPath: m_AnchoredPosition.x
      value: 0
      objectReference: {fileID: 0}
    - target: {fileID: 22409694, guid: 15ae066f32d36b741842ec1008cf67ec, type: 3}
      propertyPath: m_AnchoredPosition.y
      value: 0
      objectReference: {fileID: 0}
    - target: {fileID: 22409694, guid: 15ae066f32d36b741842ec1008cf67ec, type: 3}
      propertyPath: m_LocalPosition.y
      value: 0
      objectReference: {fileID: 0}
    - target: {fileID: 22409696, guid: 15ae066f32d36b741842ec1008cf67ec, type: 3}
      propertyPath: m_SizeDelta.y
      value: 0
      objectReference: {fileID: 0}
    - target: {fileID: 22409696, guid: 15ae066f32d36b741842ec1008cf67ec, type: 3}
      propertyPath: m_LocalPosition.x
      value: 0
      objectReference: {fileID: 0}
    - target: {fileID: 22409696, guid: 15ae066f32d36b741842ec1008cf67ec, type: 3}
      propertyPath: m_LocalPosition.y
      value: 0
      objectReference: {fileID: 0}
    - target: {fileID: 22409698, guid: 15ae066f32d36b741842ec1008cf67ec, type: 3}
      propertyPath: m_AnchorMin.y
      value: 1
      objectReference: {fileID: 0}
    - target: {fileID: 22409698, guid: 15ae066f32d36b741842ec1008cf67ec, type: 3}
      propertyPath: m_AnchorMax.y
      value: 1
      objectReference: {fileID: 0}
    - target: {fileID: 22409698, guid: 15ae066f32d36b741842ec1008cf67ec, type: 3}
      propertyPath: m_AnchoredPosition.x
      value: 247.98166
      objectReference: {fileID: 0}
    - target: {fileID: 22409698, guid: 15ae066f32d36b741842ec1008cf67ec, type: 3}
      propertyPath: m_AnchoredPosition.y
      value: -28.43769
      objectReference: {fileID: 0}
    - target: {fileID: 22409698, guid: 15ae066f32d36b741842ec1008cf67ec, type: 3}
      propertyPath: m_SizeDelta.x
      value: 158.65443
      objectReference: {fileID: 0}
    - target: {fileID: 22409698, guid: 15ae066f32d36b741842ec1008cf67ec, type: 3}
      propertyPath: m_SizeDelta.y
      value: 40.87538
      objectReference: {fileID: 0}
    - target: {fileID: 22409698, guid: 15ae066f32d36b741842ec1008cf67ec, type: 3}
      propertyPath: m_LocalPosition.x
      value: 0
      objectReference: {fileID: 0}
    - target: {fileID: 22409698, guid: 15ae066f32d36b741842ec1008cf67ec, type: 3}
      propertyPath: m_LocalPosition.y
      value: 0
      objectReference: {fileID: 0}
    - target: {fileID: 22409700, guid: 15ae066f32d36b741842ec1008cf67ec, type: 3}
      propertyPath: m_AnchorMin.y
      value: 0
      objectReference: {fileID: 0}
    - target: {fileID: 22409700, guid: 15ae066f32d36b741842ec1008cf67ec, type: 3}
      propertyPath: m_AnchorMax.y
      value: 0
      objectReference: {fileID: 0}
    - target: {fileID: 22409700, guid: 15ae066f32d36b741842ec1008cf67ec, type: 3}
      propertyPath: m_AnchoredPosition.x
      value: 0
      objectReference: {fileID: 0}
    - target: {fileID: 22409700, guid: 15ae066f32d36b741842ec1008cf67ec, type: 3}
      propertyPath: m_AnchoredPosition.y
      value: 0
      objectReference: {fileID: 0}
    - target: {fileID: 22409700, guid: 15ae066f32d36b741842ec1008cf67ec, type: 3}
      propertyPath: m_SizeDelta.x
      value: 0
      objectReference: {fileID: 0}
    - target: {fileID: 22409700, guid: 15ae066f32d36b741842ec1008cf67ec, type: 3}
      propertyPath: m_SizeDelta.y
      value: 0
      objectReference: {fileID: 0}
    - target: {fileID: 22409700, guid: 15ae066f32d36b741842ec1008cf67ec, type: 3}
      propertyPath: m_LocalPosition.y
      value: 0
      objectReference: {fileID: 0}
    - target: {fileID: 22409708, guid: 15ae066f32d36b741842ec1008cf67ec, type: 3}
      propertyPath: m_AnchorMin.y
      value: 0
      objectReference: {fileID: 0}
    - target: {fileID: 22409708, guid: 15ae066f32d36b741842ec1008cf67ec, type: 3}
      propertyPath: m_AnchorMax.y
      value: 0
      objectReference: {fileID: 0}
    - target: {fileID: 22409708, guid: 15ae066f32d36b741842ec1008cf67ec, type: 3}
      propertyPath: m_AnchoredPosition.x
      value: 0
      objectReference: {fileID: 0}
    - target: {fileID: 22409708, guid: 15ae066f32d36b741842ec1008cf67ec, type: 3}
      propertyPath: m_AnchoredPosition.y
      value: 0
      objectReference: {fileID: 0}
    - target: {fileID: 22409708, guid: 15ae066f32d36b741842ec1008cf67ec, type: 3}
      propertyPath: m_SizeDelta.x
      value: 0
      objectReference: {fileID: 0}
    - target: {fileID: 22409708, guid: 15ae066f32d36b741842ec1008cf67ec, type: 3}
      propertyPath: m_SizeDelta.y
      value: 0
      objectReference: {fileID: 0}
    - target: {fileID: 22409708, guid: 15ae066f32d36b741842ec1008cf67ec, type: 3}
      propertyPath: m_LocalPosition.x
      value: 0
      objectReference: {fileID: 0}
    - target: {fileID: 22409708, guid: 15ae066f32d36b741842ec1008cf67ec, type: 3}
      propertyPath: m_LocalPosition.y
      value: 0
      objectReference: {fileID: 0}
    - target: {fileID: 22409710, guid: 15ae066f32d36b741842ec1008cf67ec, type: 3}
      propertyPath: m_AnchorMin.y
      value: 1
      objectReference: {fileID: 0}
    - target: {fileID: 22409710, guid: 15ae066f32d36b741842ec1008cf67ec, type: 3}
      propertyPath: m_AnchorMax.y
      value: 1
      objectReference: {fileID: 0}
    - target: {fileID: 22409710, guid: 15ae066f32d36b741842ec1008cf67ec, type: 3}
      propertyPath: m_AnchoredPosition.x
      value: 171.65442
      objectReference: {fileID: 0}
    - target: {fileID: 22409710, guid: 15ae066f32d36b741842ec1008cf67ec, type: 3}
      propertyPath: m_AnchoredPosition.y
      value: -76.87536
      objectReference: {fileID: 0}
    - target: {fileID: 22409710, guid: 15ae066f32d36b741842ec1008cf67ec, type: 3}
      propertyPath: m_SizeDelta.x
      value: 343.30887
      objectReference: {fileID: 0}
    - target: {fileID: 22409710, guid: 15ae066f32d36b741842ec1008cf67ec, type: 3}
      propertyPath: m_SizeDelta.y
      value: 64.87538
      objectReference: {fileID: 0}
    - target: {fileID: 22409710, guid: 15ae066f32d36b741842ec1008cf67ec, type: 3}
      propertyPath: m_LocalPosition.x
      value: 0
      objectReference: {fileID: 0}
    - target: {fileID: 22409710, guid: 15ae066f32d36b741842ec1008cf67ec, type: 3}
      propertyPath: m_LocalPosition.y
      value: 0
      objectReference: {fileID: 0}
    - target: {fileID: 22409712, guid: 15ae066f32d36b741842ec1008cf67ec, type: 3}
      propertyPath: m_AnchoredPosition.y
      value: 0
      objectReference: {fileID: 0}
    - target: {fileID: 22409714, guid: 15ae066f32d36b741842ec1008cf67ec, type: 3}
      propertyPath: m_AnchoredPosition.x
      value: 0
      objectReference: {fileID: 0}
    - target: {fileID: 22409714, guid: 15ae066f32d36b741842ec1008cf67ec, type: 3}
      propertyPath: m_SizeDelta.x
      value: 0
      objectReference: {fileID: 0}
    - target: {fileID: 22409714, guid: 15ae066f32d36b741842ec1008cf67ec, type: 3}
      propertyPath: m_AnchorMin.y
      value: 0
      objectReference: {fileID: 0}
    - target: {fileID: 22409714, guid: 15ae066f32d36b741842ec1008cf67ec, type: 3}
      propertyPath: m_AnchorMax.y
      value: 0
      objectReference: {fileID: 0}
    - target: {fileID: 22409714, guid: 15ae066f32d36b741842ec1008cf67ec, type: 3}
      propertyPath: m_AnchoredPosition.y
      value: 0
      objectReference: {fileID: 0}
    - target: {fileID: 22409714, guid: 15ae066f32d36b741842ec1008cf67ec, type: 3}
      propertyPath: m_SizeDelta.y
      value: 0
      objectReference: {fileID: 0}
    - target: {fileID: 22409714, guid: 15ae066f32d36b741842ec1008cf67ec, type: 3}
      propertyPath: m_LocalPosition.x
      value: 0
      objectReference: {fileID: 0}
    - target: {fileID: 22409714, guid: 15ae066f32d36b741842ec1008cf67ec, type: 3}
      propertyPath: m_LocalPosition.y
      value: 0
      objectReference: {fileID: 0}
    - target: {fileID: 22409716, guid: 15ae066f32d36b741842ec1008cf67ec, type: 3}
      propertyPath: m_AnchorMin.y
      value: 1
      objectReference: {fileID: 0}
    - target: {fileID: 22409716, guid: 15ae066f32d36b741842ec1008cf67ec, type: 3}
      propertyPath: m_AnchorMax.y
      value: 1
      objectReference: {fileID: 0}
    - target: {fileID: 22409716, guid: 15ae066f32d36b741842ec1008cf67ec, type: 3}
      propertyPath: m_AnchoredPosition.x
      value: 87.32722
      objectReference: {fileID: 0}
    - target: {fileID: 22409716, guid: 15ae066f32d36b741842ec1008cf67ec, type: 3}
      propertyPath: m_AnchoredPosition.y
      value: -28.43769
      objectReference: {fileID: 0}
    - target: {fileID: 22409716, guid: 15ae066f32d36b741842ec1008cf67ec, type: 3}
      propertyPath: m_SizeDelta.x
      value: 158.65443
      objectReference: {fileID: 0}
    - target: {fileID: 22409716, guid: 15ae066f32d36b741842ec1008cf67ec, type: 3}
      propertyPath: m_SizeDelta.y
      value: 40.87538
      objectReference: {fileID: 0}
    - target: {fileID: 22409716, guid: 15ae066f32d36b741842ec1008cf67ec, type: 3}
      propertyPath: m_LocalPosition.x
      value: 0
      objectReference: {fileID: 0}
    - target: {fileID: 22409718, guid: 15ae066f32d36b741842ec1008cf67ec, type: 3}
      propertyPath: m_AnchorMax.x
      value: 1
      objectReference: {fileID: 0}
    - target: {fileID: 22409718, guid: 15ae066f32d36b741842ec1008cf67ec, type: 3}
      propertyPath: m_AnchorMax.y
      value: 1
      objectReference: {fileID: 0}
    - target: {fileID: 22409720, guid: 15ae066f32d36b741842ec1008cf67ec, type: 3}
      propertyPath: m_SizeDelta.x
      value: 0
      objectReference: {fileID: 0}
    - target: {fileID: 22409720, guid: 15ae066f32d36b741842ec1008cf67ec, type: 3}
      propertyPath: m_SizeDelta.y
      value: 0
      objectReference: {fileID: 0}
    - target: {fileID: 22409720, guid: 15ae066f32d36b741842ec1008cf67ec, type: 3}
      propertyPath: m_LocalPosition.x
      value: 0
      objectReference: {fileID: 0}
    - target: {fileID: 22409720, guid: 15ae066f32d36b741842ec1008cf67ec, type: 3}
      propertyPath: m_LocalPosition.y
      value: 0
      objectReference: {fileID: 0}
    - target: {fileID: 22409722, guid: 15ae066f32d36b741842ec1008cf67ec, type: 3}
      propertyPath: m_AnchoredPosition.x
      value: 0
      objectReference: {fileID: 0}
    - target: {fileID: 22409722, guid: 15ae066f32d36b741842ec1008cf67ec, type: 3}
      propertyPath: m_SizeDelta.x
      value: 0
      objectReference: {fileID: 0}
    - target: {fileID: 22409722, guid: 15ae066f32d36b741842ec1008cf67ec, type: 3}
      propertyPath: m_AnchorMin.y
      value: 0
      objectReference: {fileID: 0}
    - target: {fileID: 22409722, guid: 15ae066f32d36b741842ec1008cf67ec, type: 3}
      propertyPath: m_AnchorMax.y
      value: 0
      objectReference: {fileID: 0}
    - target: {fileID: 22409722, guid: 15ae066f32d36b741842ec1008cf67ec, type: 3}
      propertyPath: m_AnchoredPosition.y
      value: 0
      objectReference: {fileID: 0}
    - target: {fileID: 22409722, guid: 15ae066f32d36b741842ec1008cf67ec, type: 3}
      propertyPath: m_SizeDelta.y
      value: 0
      objectReference: {fileID: 0}
    - target: {fileID: 22409722, guid: 15ae066f32d36b741842ec1008cf67ec, type: 3}
      propertyPath: m_LocalPosition.x
      value: 0
      objectReference: {fileID: 0}
    - target: {fileID: 22409722, guid: 15ae066f32d36b741842ec1008cf67ec, type: 3}
      propertyPath: m_LocalPosition.y
      value: 0
      objectReference: {fileID: 0}
    - target: {fileID: 22409724, guid: 15ae066f32d36b741842ec1008cf67ec, type: 3}
      propertyPath: m_SizeDelta.x
      value: 0
      objectReference: {fileID: 0}
    - target: {fileID: 22409724, guid: 15ae066f32d36b741842ec1008cf67ec, type: 3}
      propertyPath: m_LocalPosition.x
      value: 0
      objectReference: {fileID: 0}
    - target: {fileID: 22409724, guid: 15ae066f32d36b741842ec1008cf67ec, type: 3}
      propertyPath: m_LocalPosition.y
      value: 0
      objectReference: {fileID: 0}
    - target: {fileID: 22409724, guid: 15ae066f32d36b741842ec1008cf67ec, type: 3}
      propertyPath: m_AnchoredPosition.x
      value: -0.000015258789
      objectReference: {fileID: 0}
    - target: {fileID: 22409728, guid: 15ae066f32d36b741842ec1008cf67ec, type: 3}
      propertyPath: m_AnchorMin.y
      value: 0
      objectReference: {fileID: 0}
    - target: {fileID: 22409728, guid: 15ae066f32d36b741842ec1008cf67ec, type: 3}
      propertyPath: m_AnchorMax.y
      value: 0
      objectReference: {fileID: 0}
    - target: {fileID: 22409728, guid: 15ae066f32d36b741842ec1008cf67ec, type: 3}
      propertyPath: m_AnchoredPosition.x
      value: 0
      objectReference: {fileID: 0}
    - target: {fileID: 22409728, guid: 15ae066f32d36b741842ec1008cf67ec, type: 3}
      propertyPath: m_AnchoredPosition.y
      value: 0
      objectReference: {fileID: 0}
    - target: {fileID: 22409728, guid: 15ae066f32d36b741842ec1008cf67ec, type: 3}
      propertyPath: m_SizeDelta.x
      value: 0
      objectReference: {fileID: 0}
    - target: {fileID: 22409728, guid: 15ae066f32d36b741842ec1008cf67ec, type: 3}
      propertyPath: m_SizeDelta.y
      value: 0
      objectReference: {fileID: 0}
    - target: {fileID: 22409728, guid: 15ae066f32d36b741842ec1008cf67ec, type: 3}
      propertyPath: m_LocalPosition.x
      value: 0
      objectReference: {fileID: 0}
    - target: {fileID: 22409728, guid: 15ae066f32d36b741842ec1008cf67ec, type: 3}
      propertyPath: m_LocalPosition.y
      value: 0
      objectReference: {fileID: 0}
    - target: {fileID: 22410892, guid: 15ae066f32d36b741842ec1008cf67ec, type: 3}
      propertyPath: m_AnchorMin.y
      value: 1
      objectReference: {fileID: 0}
    - target: {fileID: 22410892, guid: 15ae066f32d36b741842ec1008cf67ec, type: 3}
      propertyPath: m_AnchorMax.y
      value: 1
      objectReference: {fileID: 0}
    - target: {fileID: 22410892, guid: 15ae066f32d36b741842ec1008cf67ec, type: 3}
      propertyPath: m_AnchoredPosition.x
      value: 298.14526
      objectReference: {fileID: 0}
    - target: {fileID: 22410892, guid: 15ae066f32d36b741842ec1008cf67ec, type: 3}
      propertyPath: m_AnchoredPosition.y
      value: -28.43769
      objectReference: {fileID: 0}
    - target: {fileID: 22410892, guid: 15ae066f32d36b741842ec1008cf67ec, type: 3}
      propertyPath: m_SizeDelta.x
      value: 74.32722
      objectReference: {fileID: 0}
    - target: {fileID: 22410892, guid: 15ae066f32d36b741842ec1008cf67ec, type: 3}
      propertyPath: m_SizeDelta.y
      value: 40.87538
      objectReference: {fileID: 0}
    - target: {fileID: 22410892, guid: 15ae066f32d36b741842ec1008cf67ec, type: 3}
      propertyPath: m_LocalPosition.x
      value: 0
      objectReference: {fileID: 0}
    - target: {fileID: 22410894, guid: 15ae066f32d36b741842ec1008cf67ec, type: 3}
      propertyPath: m_AnchorMin.y
      value: 1
      objectReference: {fileID: 0}
    - target: {fileID: 22410894, guid: 15ae066f32d36b741842ec1008cf67ec, type: 3}
      propertyPath: m_AnchorMax.y
      value: 1
      objectReference: {fileID: 0}
    - target: {fileID: 22410894, guid: 15ae066f32d36b741842ec1008cf67ec, type: 3}
      propertyPath: m_AnchoredPosition.x
      value: 213.81804
      objectReference: {fileID: 0}
    - target: {fileID: 22410894, guid: 15ae066f32d36b741842ec1008cf67ec, type: 3}
      propertyPath: m_AnchoredPosition.y
      value: -28.43769
      objectReference: {fileID: 0}
    - target: {fileID: 22410894, guid: 15ae066f32d36b741842ec1008cf67ec, type: 3}
      propertyPath: m_SizeDelta.x
      value: 74.32722
      objectReference: {fileID: 0}
    - target: {fileID: 22410894, guid: 15ae066f32d36b741842ec1008cf67ec, type: 3}
      propertyPath: m_SizeDelta.y
      value: 40.87538
      objectReference: {fileID: 0}
    - target: {fileID: 22410894, guid: 15ae066f32d36b741842ec1008cf67ec, type: 3}
      propertyPath: m_LocalPosition.x
      value: 0
      objectReference: {fileID: 0}
    - target: {fileID: 22410896, guid: 15ae066f32d36b741842ec1008cf67ec, type: 3}
      propertyPath: m_AnchorMin.y
      value: 1
      objectReference: {fileID: 0}
    - target: {fileID: 22410896, guid: 15ae066f32d36b741842ec1008cf67ec, type: 3}
      propertyPath: m_AnchorMax.y
      value: 1
      objectReference: {fileID: 0}
    - target: {fileID: 22410896, guid: 15ae066f32d36b741842ec1008cf67ec, type: 3}
      propertyPath: m_AnchoredPosition.x
      value: 129.49083
      objectReference: {fileID: 0}
    - target: {fileID: 22410896, guid: 15ae066f32d36b741842ec1008cf67ec, type: 3}
      propertyPath: m_AnchoredPosition.y
      value: -28.43769
      objectReference: {fileID: 0}
    - target: {fileID: 22410896, guid: 15ae066f32d36b741842ec1008cf67ec, type: 3}
      propertyPath: m_SizeDelta.x
      value: 74.32722
      objectReference: {fileID: 0}
    - target: {fileID: 22410896, guid: 15ae066f32d36b741842ec1008cf67ec, type: 3}
      propertyPath: m_SizeDelta.y
      value: 40.87538
      objectReference: {fileID: 0}
    - target: {fileID: 22410896, guid: 15ae066f32d36b741842ec1008cf67ec, type: 3}
      propertyPath: m_LocalPosition.x
      value: 0
      objectReference: {fileID: 0}
    - target: {fileID: 22410898, guid: 15ae066f32d36b741842ec1008cf67ec, type: 3}
      propertyPath: m_AnchorMin.y
      value: 1
      objectReference: {fileID: 0}
    - target: {fileID: 22410898, guid: 15ae066f32d36b741842ec1008cf67ec, type: 3}
      propertyPath: m_AnchorMax.y
      value: 1
      objectReference: {fileID: 0}
    - target: {fileID: 22410898, guid: 15ae066f32d36b741842ec1008cf67ec, type: 3}
      propertyPath: m_AnchoredPosition.x
      value: 171.65443
      objectReference: {fileID: 0}
    - target: {fileID: 22410898, guid: 15ae066f32d36b741842ec1008cf67ec, type: 3}
      propertyPath: m_AnchoredPosition.y
      value: -175.18845
      objectReference: {fileID: 0}
    - target: {fileID: 22410898, guid: 15ae066f32d36b741842ec1008cf67ec, type: 3}
      propertyPath: m_SizeDelta.x
      value: 343.30887
      objectReference: {fileID: 0}
    - target: {fileID: 22410898, guid: 15ae066f32d36b741842ec1008cf67ec, type: 3}
      propertyPath: m_SizeDelta.y
      value: 56.87538
      objectReference: {fileID: 0}
    - target: {fileID: 22410898, guid: 15ae066f32d36b741842ec1008cf67ec, type: 3}
      propertyPath: m_LocalPosition.x
      value: 0
      objectReference: {fileID: 0}
    - target: {fileID: 22410898, guid: 15ae066f32d36b741842ec1008cf67ec, type: 3}
      propertyPath: m_LocalPosition.y
      value: 0
      objectReference: {fileID: 0}
    - target: {fileID: 22410902, guid: 15ae066f32d36b741842ec1008cf67ec, type: 3}
      propertyPath: m_AnchorMin.y
      value: 1
      objectReference: {fileID: 0}
    - target: {fileID: 22410902, guid: 15ae066f32d36b741842ec1008cf67ec, type: 3}
      propertyPath: m_AnchorMax.y
      value: 1
      objectReference: {fileID: 0}
    - target: {fileID: 22410902, guid: 15ae066f32d36b741842ec1008cf67ec, type: 3}
      propertyPath: m_AnchoredPosition.x
      value: 45.16361
      objectReference: {fileID: 0}
    - target: {fileID: 22410902, guid: 15ae066f32d36b741842ec1008cf67ec, type: 3}
      propertyPath: m_AnchoredPosition.y
      value: -28.43769
      objectReference: {fileID: 0}
    - target: {fileID: 22410902, guid: 15ae066f32d36b741842ec1008cf67ec, type: 3}
      propertyPath: m_SizeDelta.x
      value: 74.32722
      objectReference: {fileID: 0}
    - target: {fileID: 22410902, guid: 15ae066f32d36b741842ec1008cf67ec, type: 3}
      propertyPath: m_SizeDelta.y
      value: 40.87538
      objectReference: {fileID: 0}
    - target: {fileID: 22410902, guid: 15ae066f32d36b741842ec1008cf67ec, type: 3}
      propertyPath: m_LocalPosition.x
      value: 0
      objectReference: {fileID: 0}
    - target: {fileID: 22481936, guid: 15ae066f32d36b741842ec1008cf67ec, type: 3}
      propertyPath: m_SizeDelta.x
      value: 0
      objectReference: {fileID: 0}
    - target: {fileID: 22481936, guid: 15ae066f32d36b741842ec1008cf67ec, type: 3}
      propertyPath: m_LocalPosition.x
      value: 0
      objectReference: {fileID: 0}
    - target: {fileID: 22481936, guid: 15ae066f32d36b741842ec1008cf67ec, type: 3}
      propertyPath: m_LocalPosition.y
      value: 0
      objectReference: {fileID: 0}
    - target: {fileID: 22481938, guid: 15ae066f32d36b741842ec1008cf67ec, type: 3}
      propertyPath: m_AnchorMin.y
      value: 1
      objectReference: {fileID: 0}
    - target: {fileID: 22481938, guid: 15ae066f32d36b741842ec1008cf67ec, type: 3}
      propertyPath: m_AnchorMax.y
      value: 1
      objectReference: {fileID: 0}
    - target: {fileID: 22481938, guid: 15ae066f32d36b741842ec1008cf67ec, type: 3}
      propertyPath: m_AnchoredPosition.x
      value: 335.3089
      objectReference: {fileID: 0}
    - target: {fileID: 22481938, guid: 15ae066f32d36b741842ec1008cf67ec, type: 3}
      propertyPath: m_AnchoredPosition.y
      value: -28.437689
      objectReference: {fileID: 0}
    - target: {fileID: 22481938, guid: 15ae066f32d36b741842ec1008cf67ec, type: 3}
      propertyPath: m_SizeDelta.x
      value: 40
      objectReference: {fileID: 0}
    - target: {fileID: 22481938, guid: 15ae066f32d36b741842ec1008cf67ec, type: 3}
      propertyPath: m_SizeDelta.y
      value: 40.87538
      objectReference: {fileID: 0}
    - target: {fileID: 22481938, guid: 15ae066f32d36b741842ec1008cf67ec, type: 3}
      propertyPath: m_LocalPosition.x
      value: 0
      objectReference: {fileID: 0}
    - target: {fileID: 22481938, guid: 15ae066f32d36b741842ec1008cf67ec, type: 3}
      propertyPath: m_LocalPosition.y
      value: 0
      objectReference: {fileID: 0}
    - target: {fileID: 22481940, guid: 15ae066f32d36b741842ec1008cf67ec, type: 3}
      propertyPath: m_AnchorMin.y
      value: 1
      objectReference: {fileID: 0}
    - target: {fileID: 22481940, guid: 15ae066f32d36b741842ec1008cf67ec, type: 3}
      propertyPath: m_AnchorMax.y
      value: 1
      objectReference: {fileID: 0}
    - target: {fileID: 22481940, guid: 15ae066f32d36b741842ec1008cf67ec, type: 3}
      propertyPath: m_AnchoredPosition.x
      value: 171.65443
      objectReference: {fileID: 0}
    - target: {fileID: 22481940, guid: 15ae066f32d36b741842ec1008cf67ec, type: 3}
      propertyPath: m_AnchoredPosition.y
      value: -237.06384
      objectReference: {fileID: 0}
    - target: {fileID: 22481940, guid: 15ae066f32d36b741842ec1008cf67ec, type: 3}
      propertyPath: m_SizeDelta.x
      value: 343.30887
      objectReference: {fileID: 0}
    - target: {fileID: 22481940, guid: 15ae066f32d36b741842ec1008cf67ec, type: 3}
      propertyPath: m_SizeDelta.y
      value: 56.87538
      objectReference: {fileID: 0}
    - target: {fileID: 22481940, guid: 15ae066f32d36b741842ec1008cf67ec, type: 3}
      propertyPath: m_LocalPosition.x
      value: 0
      objectReference: {fileID: 0}
    - target: {fileID: 22481940, guid: 15ae066f32d36b741842ec1008cf67ec, type: 3}
      propertyPath: m_LocalPosition.y
      value: 0
      objectReference: {fileID: 0}
    - target: {fileID: 22481942, guid: 15ae066f32d36b741842ec1008cf67ec, type: 3}
      propertyPath: m_AnchorMin.y
      value: 1
      objectReference: {fileID: 0}
    - target: {fileID: 22481942, guid: 15ae066f32d36b741842ec1008cf67ec, type: 3}
      propertyPath: m_AnchorMax.y
      value: 1
      objectReference: {fileID: 0}
    - target: {fileID: 22481942, guid: 15ae066f32d36b741842ec1008cf67ec, type: 3}
      propertyPath: m_AnchoredPosition.x
      value: 146.65443
      objectReference: {fileID: 0}
    - target: {fileID: 22481942, guid: 15ae066f32d36b741842ec1008cf67ec, type: 3}
      propertyPath: m_AnchoredPosition.y
      value: -28.43769
      objectReference: {fileID: 0}
    - target: {fileID: 22481942, guid: 15ae066f32d36b741842ec1008cf67ec, type: 3}
      propertyPath: m_SizeDelta.x
      value: 277.30887
      objectReference: {fileID: 0}
    - target: {fileID: 22481942, guid: 15ae066f32d36b741842ec1008cf67ec, type: 3}
      propertyPath: m_SizeDelta.y
      value: 40.87538
      objectReference: {fileID: 0}
    - target: {fileID: 22481942, guid: 15ae066f32d36b741842ec1008cf67ec, type: 3}
      propertyPath: m_LocalPosition.x
      value: 0
      objectReference: {fileID: 0}
    m_RemovedComponents: []
  m_SourcePrefab: {fileID: 100100000, guid: 15ae066f32d36b741842ec1008cf67ec, type: 3}
--- !u!224 &1962481041 stripped
RectTransform:
  m_CorrespondingSourceObject: {fileID: 22440688, guid: 700fa4739f929e24698fb8d976a1dfd9,
    type: 3}
  m_PrefabInstance: {fileID: 800190752}
  m_PrefabAsset: {fileID: 0}
--- !u!1 &1966111262
GameObject:
  m_ObjectHideFlags: 0
  m_CorrespondingSourceObject: {fileID: 0}
  m_PrefabInstance: {fileID: 0}
  m_PrefabAsset: {fileID: 0}
  serializedVersion: 6
  m_Component:
  - component: {fileID: 1966111267}
  - component: {fileID: 1966111266}
  - component: {fileID: 1966111264}
  - component: {fileID: 1966111263}
  m_Layer: 0
  m_Name: Main Camera
  m_TagString: MainCamera
  m_Icon: {fileID: 0}
  m_NavMeshLayer: 0
  m_StaticEditorFlags: 0
  m_IsActive: 1
--- !u!81 &1966111263
AudioListener:
  m_ObjectHideFlags: 0
  m_CorrespondingSourceObject: {fileID: 0}
  m_PrefabInstance: {fileID: 0}
  m_PrefabAsset: {fileID: 0}
  m_GameObject: {fileID: 1966111262}
  m_Enabled: 1
--- !u!124 &1966111264
Behaviour:
  m_ObjectHideFlags: 0
  m_CorrespondingSourceObject: {fileID: 0}
  m_PrefabInstance: {fileID: 0}
  m_PrefabAsset: {fileID: 0}
  m_GameObject: {fileID: 1966111262}
  m_Enabled: 1
--- !u!20 &1966111266
Camera:
  m_ObjectHideFlags: 0
  m_CorrespondingSourceObject: {fileID: 0}
  m_PrefabInstance: {fileID: 0}
  m_PrefabAsset: {fileID: 0}
  m_GameObject: {fileID: 1966111262}
  m_Enabled: 1
  serializedVersion: 2
  m_ClearFlags: 1
  m_BackGroundColor: {r: 0.18382353, g: 0.18382353, b: 0.18382353, a: 0.019607844}
  m_projectionMatrixMode: 1
  m_GateFitMode: 2
  m_FOVAxisMode: 0
  m_SensorSize: {x: 36, y: 24}
  m_LensShift: {x: 0, y: 0}
  m_FocalLength: 50
  m_NormalizedViewPortRect:
    serializedVersion: 2
    x: 0
    y: 0
    width: 1
    height: 1
  near clip plane: 0.3
  far clip plane: 1000
  field of view: 60
  orthographic: 0
  orthographic size: 5
  m_Depth: -1
  m_CullingMask:
    serializedVersion: 2
    m_Bits: 4294967295
  m_RenderingPath: -1
  m_TargetTexture: {fileID: 0}
  m_TargetDisplay: 0
  m_TargetEye: 3
  m_HDR: 0
  m_AllowMSAA: 1
  m_AllowDynamicResolution: 0
  m_ForceIntoRT: 0
  m_OcclusionCulling: 1
  m_StereoConvergence: 10
  m_StereoSeparation: 0.022
--- !u!4 &1966111267
Transform:
  m_ObjectHideFlags: 0
  m_CorrespondingSourceObject: {fileID: 0}
  m_PrefabInstance: {fileID: 0}
  m_PrefabAsset: {fileID: 0}
  m_GameObject: {fileID: 1966111262}
  m_LocalRotation: {x: 0, y: 0, z: 0, w: 1}
  m_LocalPosition: {x: 0, y: 1, z: -10}
  m_LocalScale: {x: 1, y: 1, z: 1}
  m_Children: []
  m_Father: {fileID: 0}
  m_RootOrder: 0
  m_LocalEulerAnglesHint: {x: 0, y: 0, z: 0}
