[
  {
    "WaveLevel": "1",
    "PersonCount": "1_10",
    "TouchCount": "3",
    "Percent": "10000"
  },
  {
    "WaveLevel": "2",
    "PersonCount": "11_20",
    "TouchCount": "3_4",
    "Percent": "5000_5000"
  },
  {
    "WaveLevel": "3",
    "PersonCount": "21_30",
    "TouchCount": "3_4_5_6",
    "Percent": "2000_2000_3000_3000"
  },
  {
    "WaveLevel": "4",
    "PersonCount": "31_40",
    "TouchCount": "4_5_6",
    "Percent": "3000_3000_4000"
  },
  {
    "WaveLevel": "5",
    "PersonCount": "41_50",
    "TouchCount": "7_8_9",
    "Percent": "3000_3000_4000"
  },
  {
    "WaveLevel": "6",
    "PersonCount": "51_60",
    "TouchCount": "7_8_10",
    "Percent": "3000_3000_4000"
  },
  {
    "WaveLevel": "7",
    "PersonCount": "61_70",
    "TouchCount": "7_8_11",
    "Percent": "3000_3000_4000"
  },
  {
    "WaveLevel": "8",
    "PersonCount": "71_80",
    "TouchCount": "7_8_12",
    "Percent": "3000_3000_4000"
  },
  {
    "WaveLevel": "9",
    "PersonCount": "81_90",
    "TouchCount": "7_8_13",
    "Percent": "3000_3000_4000"
  },
  {
    "WaveLevel": "10",
    "PersonCount": "91_100",
    "TouchCount": "7_8_14",
    "Percent": "3000_3000_4000"
  }
]